2020-03-18 08:46:55.275240Z: [Thread 8624] (Msg 1/1) BIP1990I: Integration server 'Consumer_SERVER' starting initialization; version '11.0.0.7' (64-bit) 
2020-03-18 08:47:04.905655Z: [Thread 8624] (Msg 1/1) BIP2155I: About to 'Initialize' the deployed resource 'Test' of type 'Application'. 
2020-03-18 08:47:05.732368Z: [Thread 8624] (Msg 1/1) BIP3316W: File node 'File Output' in message flow 'Test' has no valid filename specified as property ''. 
2020-03-18 08:47:06.188417Z: [Thread 8624] (Msg 1/1) BIP2155I: About to 'Start' the deployed resource 'Test' of type 'Application'. 
2020-03-18 08:47:06.189008Z: [Thread 8624] (Msg 1/1) BIP2269I: Deployed resource 'Test' (uuid='Test',type='MessageFlow') started successfully. 
2020-03-18 08:47:22.412490Z: [Thread 16492] (Msg 1/1) BIP2866I: IBM App Connect Enterprise administration security is inactive. 
2020-03-18 08:47:22.506708Z: [Thread 16492] (Msg 1/1) BIP3132I: The HTTP Listener has started listening on port '7602' for 'RestAdmin http' connections. 
2020-03-18 08:47:22.524520Z: [Thread 8624] (Msg 1/1) BIP1991I: Integration server has finished initialization. 
2020-03-18 08:48:07.114493Z: [Thread 16228] (Msg 1/1) BIP4362E: Java node error: [BIPmsgs:3891]BIP3891E: The Kafka input connector was unable to subscribe to topic 'myfirsttopic' on Kafka server at address 'INDIA-Maha.perficient.com:9093'. Explanation 'Timeout expired while fetching topic metadata'. 
2020-03-18 08:49:07.157696Z: [Thread 16228] (Msg 1/1) BIP4362E: Java node error: [BIPmsgs:3891]BIP3891E: The Kafka input connector was unable to subscribe to topic 'myfirsttopic' on Kafka server at address 'INDIA-Maha.perficient.com:9093'. Explanation 'Timeout expired while fetching topic metadata'. 
2020-03-18 08:52:19.505644Z: [Thread 5640] (Msg 1/1) BIP2152I: Configuration message received. 
2020-03-18 08:52:19.576796Z: [Thread 5640] (Msg 1/1) BIP2155I: About to 'Stop' the deployed resource 'Test' of type 'Application'. 
2020-03-18 08:52:19.576954Z: [Thread 5640] (Msg 1/1) BIP2271I: Deployed resource 'Test' (uuid='Test',type='MessageFlow') successfully stopped. 
2020-03-18 08:52:22.431838Z: [Thread 5640] (Msg 1/1) BIP2155I: About to 'TearDown' the deployed resource 'Test' of type 'Application'. 
2020-03-18 08:52:22.491138Z: [Thread 5640] (Msg 1/1) BIP2155I: About to 'Initialize' the deployed resource 'Test' of type 'Application'. 
2020-03-18 08:52:22.500952Z: [Thread 5640] (Msg 1/1) BIP3316W: File node 'File Output' in message flow 'Test' has no valid filename specified as property ''. 
2020-03-18 08:52:22.576592Z: [Thread 5640] (Msg 1/1) BIP2155I: About to 'Start' the deployed resource 'Test' of type 'Application'. 
2020-03-18 08:52:22.576750Z: [Thread 5640] (Msg 1/1) BIP2269I: Deployed resource 'Test' (uuid='Test',type='MessageFlow') started successfully. 
2020-03-18 08:52:22.576894Z: [Thread 5640] (Msg 1/1) BIP9332I: Application 'Test' has been changed successfully. 
2020-03-18 08:52:22.576930Z: [Thread 5640] (Msg 1/1) BIP9326I: The source 'Testproject.generated.bar' has been successfully deployed. 
2020-03-18 08:52:22.581270Z: [Thread 5640] (Msg 1/1) BIP2154I: Integration server finished with Configuration message. 
2020-03-18 08:52:41.546604Z: [Thread 8048] (Msg 1/4) BIP2628W: Exception condition detected on input node 'Test.KafkaConsumer1'. 
2020-03-18 08:52:41.546680Z: [Thread 8048] (Msg 2/4) BIP2230E: Error detected whilst processing a message in node 'Test.Java Compute'. 
2020-03-18 08:52:41.546728Z: [Thread 8048] (Msg 3/4) BIP4367E: The method 'evaluate' in Java node 'Java Compute' has thrown the following exception: java.lang.NullPointerException. 
2020-03-18 08:52:41.546772Z: [Thread 8048] (Msg 4/4) BIP4395E: Java exception: 'java.lang.NullPointerException'; thrown from class name: 'com.kafkapoc.jcnheaders.Test_JavaCompute', method name: 'evaluate', file: 'Test_JavaCompute.java', line: '28' 
2020-03-18 08:52:41.547816Z: [Thread 8048] (Msg 1/2) BIP2628W: Exception condition detected on input node 'Test.KafkaConsumer1'. 
2020-03-18 08:52:41.547888Z: [Thread 8048] (Msg 2/2) BIP3910I: Input node 'KafkaConsumer1' has retried a message the maximum number of times. The message is now propagated to the failure terminal. 
2020-03-18 08:55:53.982440Z: [Thread 8048] (Msg 1/4) BIP2628W: Exception condition detected on input node 'Test.KafkaConsumer1'. 
2020-03-18 08:55:53.982500Z: [Thread 8048] (Msg 2/4) BIP2230E: Error detected whilst processing a message in node 'Test.Java Compute'. 
2020-03-18 08:55:53.982540Z: [Thread 8048] (Msg 3/4) BIP4367E: The method 'evaluate' in Java node 'Java Compute' has thrown the following exception: java.lang.NullPointerException. 
2020-03-18 08:55:53.982576Z: [Thread 8048] (Msg 4/4) BIP4395E: Java exception: 'java.lang.NullPointerException'; thrown from class name: 'com.kafkapoc.jcnheaders.Test_JavaCompute', method name: 'evaluate', file: 'Test_JavaCompute.java', line: '28' 
2020-03-18 08:55:53.985320Z: [Thread 8048] (Msg 1/2) BIP2628W: Exception condition detected on input node 'Test.KafkaConsumer1'. 
2020-03-18 08:55:53.985376Z: [Thread 8048] (Msg 2/2) BIP3910I: Input node 'KafkaConsumer1' has retried a message the maximum number of times. The message is now propagated to the failure terminal. 
2020-03-18 08:58:41.106544Z: [Thread 8100] (Msg 1/1) BIP2152I: Configuration message received. 
2020-03-18 08:58:41.136076Z: [Thread 8100] (Msg 1/1) BIP2155I: About to 'Stop' the deployed resource 'Test' of type 'Application'. 
2020-03-18 08:58:41.136152Z: [Thread 8100] (Msg 1/1) BIP2271I: Deployed resource 'Test' (uuid='Test',type='MessageFlow') successfully stopped. 
2020-03-18 08:58:45.818848Z: [Thread 8100] (Msg 1/1) BIP2155I: About to 'TearDown' the deployed resource 'Test' of type 'Application'. 
2020-03-18 08:58:46.750748Z: [Thread 8100] (Msg 1/1) BIP2155I: About to 'Initialize' the deployed resource 'Test' of type 'Application'. 
2020-03-18 08:58:46.775192Z: [Thread 8100] (Msg 1/1) BIP3316W: File node 'File Output' in message flow 'Test' has no valid filename specified as property ''. 
2020-03-18 08:58:47.853916Z: [Thread 8100] (Msg 1/1) BIP2155I: About to 'Start' the deployed resource 'Test' of type 'Application'. 
2020-03-18 08:58:47.854112Z: [Thread 8100] (Msg 1/1) BIP2269I: Deployed resource 'Test' (uuid='Test',type='MessageFlow') started successfully. 
2020-03-18 08:58:47.857024Z: [Thread 8100] (Msg 1/1) BIP9332I: Application 'Test' has been changed successfully. 
2020-03-18 08:58:47.857096Z: [Thread 8100] (Msg 1/1) BIP9326I: The source 'Testproject.generated.bar' has been successfully deployed. 
2020-03-18 08:58:47.857524Z: [Thread 8100] (Msg 1/1) BIP2154I: Integration server finished with Configuration message. 
2020-03-18 09:01:25.480590Z: [Thread 7908] (Msg 1/4) BIP2628W: Exception condition detected on input node 'Test.KafkaConsumer1'. 
2020-03-18 09:01:25.480654Z: [Thread 7908] (Msg 2/4) BIP2230E: Error detected whilst processing a message in node 'Test.Java Compute'. 
2020-03-18 09:01:25.480688Z: [Thread 7908] (Msg 3/4) BIP4367E: The method 'evaluate' in Java node 'Java Compute' has thrown the following exception: java.lang.NullPointerException. 
2020-03-18 09:01:25.480722Z: [Thread 7908] (Msg 4/4) BIP4395E: Java exception: 'java.lang.NullPointerException'; thrown from class name: 'com.kafkapoc.jcnheaders.Test_JavaCompute', method name: 'evaluate', file: 'Test_JavaCompute.java', line: '30' 
2020-03-18 09:01:25.483530Z: [Thread 7908] (Msg 1/2) BIP2628W: Exception condition detected on input node 'Test.KafkaConsumer1'. 
2020-03-18 09:01:25.483594Z: [Thread 7908] (Msg 2/2) BIP3910I: Input node 'KafkaConsumer1' has retried a message the maximum number of times. The message is now propagated to the failure terminal. 
2020-03-18 09:01:59.209092Z: [Thread 11824] (Msg 1/1) BIP2152I: Configuration message received. 
2020-03-18 09:01:59.244956Z: [Thread 11824] (Msg 1/1) BIP2155I: About to 'Stop' the deployed resource 'Test' of type 'Application'. 
2020-03-18 09:01:59.245028Z: [Thread 11824] (Msg 1/1) BIP2271I: Deployed resource 'Test' (uuid='Test',type='MessageFlow') successfully stopped. 
2020-03-18 09:02:01.661397Z: [Thread 11824] (Msg 1/1) BIP2155I: About to 'TearDown' the deployed resource 'Test' of type 'Application'. 
2020-03-18 09:02:01.754154Z: [Thread 11824] (Msg 1/1) BIP2155I: About to 'Initialize' the deployed resource 'Test' of type 'Application'. 
2020-03-18 09:02:01.773964Z: [Thread 11824] (Msg 1/1) BIP3316W: File node 'File Output' in message flow 'Test' has no valid filename specified as property ''. 
2020-03-18 09:02:02.852917Z: [Thread 11824] (Msg 1/1) BIP2155I: About to 'Start' the deployed resource 'Test' of type 'Application'. 
2020-03-18 09:02:02.853114Z: [Thread 11824] (Msg 1/1) BIP2269I: Deployed resource 'Test' (uuid='Test',type='MessageFlow') started successfully. 
2020-03-18 09:02:02.855479Z: [Thread 11824] (Msg 1/1) BIP9332I: Application 'Test' has been changed successfully. 
2020-03-18 09:02:02.855544Z: [Thread 11824] (Msg 1/1) BIP9326I: The source 'Testproject.generated.bar' has been successfully deployed. 
2020-03-18 09:02:02.855957Z: [Thread 11824] (Msg 1/1) BIP2154I: Integration server finished with Configuration message. 
2020-03-18 09:07:16.171186Z: [Thread 19544] (Msg 1/1) BIP2152I: Configuration message received. 
2020-03-18 09:07:16.229568Z: [Thread 19544] (Msg 1/1) BIP2155I: About to 'Stop' the deployed resource 'Test' of type 'Application'. 
2020-03-18 09:07:16.229725Z: [Thread 19544] (Msg 1/1) BIP2271I: Deployed resource 'Test' (uuid='Test',type='MessageFlow') successfully stopped. 
2020-03-18 09:07:18.266396Z: [Thread 19544] (Msg 1/1) BIP2155I: About to 'TearDown' the deployed resource 'Test' of type 'Application'. 
2020-03-18 09:07:18.329832Z: [Thread 19544] (Msg 1/1) BIP2155I: About to 'Initialize' the deployed resource 'Test' of type 'Application'. 
2020-03-18 09:07:18.334618Z: [Thread 19544] (Msg 1/1) BIP3316W: File node 'File Output' in message flow 'Test' has no valid filename specified as property ''. 
2020-03-18 09:07:18.394416Z: [Thread 19544] (Msg 1/1) BIP2155I: About to 'Start' the deployed resource 'Test' of type 'Application'. 
2020-03-18 09:07:18.394610Z: [Thread 19544] (Msg 1/1) BIP2269I: Deployed resource 'Test' (uuid='Test',type='MessageFlow') started successfully. 
2020-03-18 09:07:18.394840Z: [Thread 19544] (Msg 1/1) BIP9332I: Application 'Test' has been changed successfully. 
2020-03-18 09:07:18.394888Z: [Thread 19544] (Msg 1/1) BIP9326I: The source 'Testproject.generated.bar' has been successfully deployed. 
2020-03-18 09:07:18.395186Z: [Thread 19544] (Msg 1/1) BIP2154I: Integration server finished with Configuration message. 
2020-03-18 09:19:55.970020Z: [Thread 8420] (Msg 1/1) BIP2152I: Configuration message received. 
2020-03-18 09:19:56.003012Z: [Thread 8420] (Msg 1/1) BIP2155I: About to 'Stop' the deployed resource 'Test' of type 'Application'. 
2020-03-18 09:19:56.003088Z: [Thread 8420] (Msg 1/1) BIP2271I: Deployed resource 'Test' (uuid='Test',type='MessageFlow') successfully stopped. 
2020-03-18 09:19:59.517056Z: [Thread 8420] (Msg 1/1) BIP2155I: About to 'TearDown' the deployed resource 'Test' of type 'Application'. 
2020-03-18 09:19:59.573408Z: [Thread 8420] (Msg 1/1) BIP2155I: About to 'Initialize' the deployed resource 'Test' of type 'Application'. 
2020-03-18 09:19:59.577836Z: [Thread 8420] (Msg 1/1) BIP3316W: File node 'File Output' in message flow 'Test' has no valid filename specified as property ''. 
2020-03-18 09:21:32.203296Z: [Thread 8420] (Msg 1/1) BIP2155I: About to 'Start' the deployed resource 'Test' of type 'Application'. 
2020-03-18 09:21:32.203484Z: [Thread 8420] (Msg 1/1) BIP2269I: Deployed resource 'Test' (uuid='Test',type='MessageFlow') started successfully. 
2020-03-18 09:21:32.203690Z: [Thread 8420] (Msg 1/1) BIP9332I: Application 'Test' has been changed successfully. 
2020-03-18 09:21:32.203732Z: [Thread 8420] (Msg 1/1) BIP9326I: The source 'Testproject.generated.bar' has been successfully deployed. 
2020-03-18 09:21:32.204098Z: [Thread 8420] (Msg 1/1) BIP2154I: Integration server finished with Configuration message. 
2020-03-18 09:22:28.194796Z: [Thread 12780] (Msg 1/1) BIP2152I: Configuration message received. 
2020-03-18 09:22:28.220652Z: [Thread 12780] (Msg 1/1) BIP2155I: About to 'Stop' the deployed resource 'Test' of type 'Application'. 
2020-03-18 09:22:28.220724Z: [Thread 12780] (Msg 1/1) BIP2271I: Deployed resource 'Test' (uuid='Test',type='MessageFlow') successfully stopped. 
2020-03-18 09:22:33.198108Z: [Thread 12780] (Msg 1/1) BIP2155I: About to 'TearDown' the deployed resource 'Test' of type 'Application'. 
2020-03-18 09:22:33.257514Z: [Thread 12780] (Msg 1/1) BIP2155I: About to 'Initialize' the deployed resource 'Test' of type 'Application'. 
2020-03-18 09:22:33.262814Z: [Thread 12780] (Msg 1/1) BIP3316W: File node 'File Output' in message flow 'Test' has no valid filename specified as property ''. 
2020-03-18 09:22:49.712324Z: [Thread 12780] (Msg 1/1) BIP2155I: About to 'Start' the deployed resource 'Test' of type 'Application'. 
2020-03-18 09:22:49.712592Z: [Thread 12780] (Msg 1/1) BIP2269I: Deployed resource 'Test' (uuid='Test',type='MessageFlow') started successfully. 
2020-03-18 09:22:49.712968Z: [Thread 12780] (Msg 1/1) BIP9332I: Application 'Test' has been changed successfully. 
2020-03-18 09:22:49.713044Z: [Thread 12780] (Msg 1/1) BIP9326I: The source 'Testproject.generated.bar' has been successfully deployed. 
2020-03-18 09:22:49.713568Z: [Thread 12780] (Msg 1/1) BIP2154I: Integration server finished with Configuration message. 
2020-03-18 09:25:29.311166Z: [Thread 4740] (Msg 1/1) BIP2152I: Configuration message received. 
2020-03-18 09:25:29.360098Z: [Thread 4740] (Msg 1/1) BIP2155I: About to 'Stop' the deployed resource 'Test' of type 'Application'. 
2020-03-18 09:25:29.360212Z: [Thread 4740] (Msg 1/1) BIP2271I: Deployed resource 'Test' (uuid='Test',type='MessageFlow') successfully stopped. 
2020-03-18 09:25:32.169396Z: [Thread 4740] (Msg 1/1) BIP2155I: About to 'TearDown' the deployed resource 'Test' of type 'Application'. 
2020-03-18 09:25:32.193486Z: [Thread 4740] (Msg 1/1) BIP2155I: About to 'Initialize' the deployed resource 'Test' of type 'Application'. 
2020-03-18 09:25:32.199890Z: [Thread 4740] (Msg 1/1) BIP3316W: File node 'File Output' in message flow 'Test' has no valid filename specified as property ''. 
2020-03-18 09:27:02.969062Z: [Thread 4740] (Msg 1/1) BIP2155I: About to 'Start' the deployed resource 'Test' of type 'Application'. 
2020-03-18 09:27:02.969331Z: [Thread 4740] (Msg 1/1) BIP2269I: Deployed resource 'Test' (uuid='Test',type='MessageFlow') started successfully. 
2020-03-18 09:27:02.969653Z: [Thread 4740] (Msg 1/1) BIP9332I: Application 'Test' has been changed successfully. 
2020-03-18 09:27:02.969699Z: [Thread 4740] (Msg 1/1) BIP9326I: The source 'Testproject.generated.bar' has been successfully deployed. 
2020-03-18 09:27:02.970056Z: [Thread 4740] (Msg 1/1) BIP2154I: Integration server finished with Configuration message. 
2020-03-18 09:49:40.508880Z: [Thread 3444] (Msg 1/4) BIP2628W: Exception condition detected on input node 'Test.KafkaConsumer1'. 
2020-03-18 09:49:40.509208Z: [Thread 3444] (Msg 2/4) BIP2230E: Error detected whilst processing a message in node 'Test.Java Compute'. 
2020-03-18 09:49:40.509440Z: [Thread 3444] (Msg 3/4) BIP4367E: The method 'evaluate' in Java node 'Java Compute' has thrown the following exception: java.lang.NullPointerException. 
2020-03-18 09:49:40.509596Z: [Thread 3444] (Msg 4/4) BIP4395E: Java exception: 'java.lang.NullPointerException'; thrown from class name: 'com.kafkapoc.jcnheaders.Test_JavaCompute', method name: 'evaluate', file: 'Test_JavaCompute.java', line: '30' 
2020-03-18 09:49:40.513772Z: [Thread 3444] (Msg 1/2) BIP2628W: Exception condition detected on input node 'Test.KafkaConsumer1'. 
2020-03-18 09:49:40.513956Z: [Thread 3444] (Msg 2/2) BIP3910I: Input node 'KafkaConsumer1' has retried a message the maximum number of times. The message is now propagated to the failure terminal. 
2020-03-18 09:49:46.856504Z: [Thread 15084] (Msg 1/1) BIP2152I: Configuration message received. 
2020-03-18 09:49:46.920744Z: [Thread 15084] (Msg 1/1) BIP2155I: About to 'Stop' the deployed resource 'Test' of type 'Application'. 
2020-03-18 09:49:46.920892Z: [Thread 15084] (Msg 1/1) BIP2271I: Deployed resource 'Test' (uuid='Test',type='MessageFlow') successfully stopped. 
2020-03-18 09:49:51.523016Z: [Thread 15084] (Msg 1/1) BIP2155I: About to 'TearDown' the deployed resource 'Test' of type 'Application'. 
2020-03-18 09:49:51.581736Z: [Thread 15084] (Msg 1/1) BIP2155I: About to 'Initialize' the deployed resource 'Test' of type 'Application'. 
2020-03-18 09:49:51.586336Z: [Thread 15084] (Msg 1/1) BIP3316W: File node 'File Output' in message flow 'Test' has no valid filename specified as property ''. 
2020-03-18 09:49:51.656944Z: [Thread 15084] (Msg 1/1) BIP2155I: About to 'Start' the deployed resource 'Test' of type 'Application'. 
2020-03-18 09:49:51.657100Z: [Thread 15084] (Msg 1/1) BIP2269I: Deployed resource 'Test' (uuid='Test',type='MessageFlow') started successfully. 
2020-03-18 09:49:51.657304Z: [Thread 15084] (Msg 1/1) BIP9332I: Application 'Test' has been changed successfully. 
2020-03-18 09:49:51.657352Z: [Thread 15084] (Msg 1/1) BIP9326I: The source 'Testproject.generated.bar' has been successfully deployed. 
2020-03-18 09:49:51.657712Z: [Thread 15084] (Msg 1/1) BIP2154I: Integration server finished with Configuration message. 
2020-03-18 09:59:30.183400Z: [Thread 20228] (Msg 1/4) BIP2628W: Exception condition detected on input node 'Test.KafkaConsumer1'. 
2020-03-18 09:59:30.183524Z: [Thread 20228] (Msg 2/4) BIP2230E: Error detected whilst processing a message in node 'Test.Java Compute'. 
2020-03-18 09:59:30.183562Z: [Thread 20228] (Msg 3/4) BIP4367E: The method 'evaluate' in Java node 'Java Compute' has thrown the following exception: java.lang.NullPointerException. 
2020-03-18 09:59:30.183598Z: [Thread 20228] (Msg 4/4) BIP4395E: Java exception: 'java.lang.NullPointerException'; thrown from class name: 'com.kafkapoc.jcnheaders.Test_JavaCompute', method name: 'evaluate', file: 'Test_JavaCompute.java', line: '31' 
2020-03-18 09:59:30.186406Z: [Thread 20228] (Msg 1/2) BIP2628W: Exception condition detected on input node 'Test.KafkaConsumer1'. 
2020-03-18 09:59:30.186462Z: [Thread 20228] (Msg 2/2) BIP3910I: Input node 'KafkaConsumer1' has retried a message the maximum number of times. The message is now propagated to the failure terminal. 
2020-03-18 10:01:08.641426Z: [Thread 9840] (Msg 1/1) BIP2152I: Configuration message received. 
2020-03-18 10:01:08.689737Z: [Thread 9840] (Msg 1/1) BIP2155I: About to 'Stop' the deployed resource 'Test' of type 'Application'. 
2020-03-18 10:01:08.689820Z: [Thread 9840] (Msg 1/1) BIP2271I: Deployed resource 'Test' (uuid='Test',type='MessageFlow') successfully stopped. 
2020-03-18 10:01:11.653977Z: [Thread 9840] (Msg 1/1) BIP2155I: About to 'TearDown' the deployed resource 'Test' of type 'Application'. 
2020-03-18 10:01:11.747191Z: [Thread 9840] (Msg 1/1) BIP2155I: About to 'Initialize' the deployed resource 'Test' of type 'Application'. 
2020-03-18 10:01:11.765722Z: [Thread 9840] (Msg 1/1) BIP3316W: File node 'File Output' in message flow 'Test' has no valid filename specified as property ''. 
2020-03-18 10:01:21.214438Z: [Thread 9840] (Msg 1/1) BIP2155I: About to 'Start' the deployed resource 'Test' of type 'Application'. 
2020-03-18 10:01:21.214618Z: [Thread 9840] (Msg 1/1) BIP2269I: Deployed resource 'Test' (uuid='Test',type='MessageFlow') started successfully. 
2020-03-18 10:01:21.217718Z: [Thread 9840] (Msg 1/1) BIP9332I: Application 'Test' has been changed successfully. 
2020-03-18 10:01:21.217786Z: [Thread 9840] (Msg 1/1) BIP9326I: The source 'Testproject.generated.bar' has been successfully deployed. 
2020-03-18 10:01:21.218210Z: [Thread 9840] (Msg 1/1) BIP2154I: Integration server finished with Configuration message. 
2020-03-18 10:02:35.452124Z: [Thread 18360] (Msg 1/4) BIP2628W: Exception condition detected on input node 'Test.KafkaConsumer1'. 
2020-03-18 10:02:35.452188Z: [Thread 18360] (Msg 2/4) BIP2230E: Error detected whilst processing a message in node 'Test.Java Compute'. 
2020-03-18 10:02:35.452224Z: [Thread 18360] (Msg 3/4) BIP4367E: The method 'evaluate' in Java node 'Java Compute' has thrown the following exception: java.lang.NullPointerException. 
2020-03-18 10:02:35.452256Z: [Thread 18360] (Msg 4/4) BIP4395E: Java exception: 'java.lang.NullPointerException'; thrown from class name: 'com.kafkapoc.jcnheaders.Test_JavaCompute', method name: 'evaluate', file: 'Test_JavaCompute.java', line: '31' 
2020-03-18 10:02:35.455160Z: [Thread 18360] (Msg 1/2) BIP2628W: Exception condition detected on input node 'Test.KafkaConsumer1'. 
2020-03-18 10:02:35.455228Z: [Thread 18360] (Msg 2/2) BIP3910I: Input node 'KafkaConsumer1' has retried a message the maximum number of times. The message is now propagated to the failure terminal. 
2020-03-18 10:06:00.294555Z: [Thread 10988] (Msg 1/1) BIP2152I: Configuration message received. 
2020-03-18 10:06:00.348552Z: [Thread 10988] (Msg 1/1) BIP2155I: About to 'Stop' the deployed resource 'Test' of type 'Application'. 
2020-03-18 10:06:00.348705Z: [Thread 10988] (Msg 1/1) BIP2271I: Deployed resource 'Test' (uuid='Test',type='MessageFlow') successfully stopped. 
2020-03-18 10:06:02.362727Z: [Thread 10988] (Msg 1/1) BIP2155I: About to 'TearDown' the deployed resource 'Test' of type 'Application'. 
2020-03-18 10:06:02.408221Z: [Thread 10988] (Msg 1/1) BIP2155I: About to 'Initialize' the deployed resource 'Test' of type 'Application'. 
2020-03-18 10:06:02.413211Z: [Thread 10988] (Msg 1/1) BIP3316W: File node 'File Output' in message flow 'Test' has no valid filename specified as property ''. 
2020-03-18 10:06:02.490413Z: [Thread 10988] (Msg 1/1) BIP2155I: About to 'Start' the deployed resource 'Test' of type 'Application'. 
2020-03-18 10:06:02.490591Z: [Thread 10988] (Msg 1/1) BIP2269I: Deployed resource 'Test' (uuid='Test',type='MessageFlow') started successfully. 
2020-03-18 10:06:02.490810Z: [Thread 10988] (Msg 1/1) BIP9332I: Application 'Test' has been changed successfully. 
2020-03-18 10:06:02.490848Z: [Thread 10988] (Msg 1/1) BIP9326I: The source 'Testproject.generated.bar' has been successfully deployed. 
2020-03-18 10:06:02.491161Z: [Thread 10988] (Msg 1/1) BIP2154I: Integration server finished with Configuration message. 
2020-03-18 10:15:27.757638Z: [Thread 5640] (Msg 1/1) BIP2152I: Configuration message received. 
2020-03-18 10:15:27.803650Z: [Thread 5640] (Msg 1/1) BIP2155I: About to 'Stop' the deployed resource 'Test' of type 'Application'. 
2020-03-18 10:15:27.803728Z: [Thread 5640] (Msg 1/1) BIP2271I: Deployed resource 'Test' (uuid='Test',type='MessageFlow') successfully stopped. 
2020-03-18 10:15:28.607442Z: [Thread 5640] (Msg 1/1) BIP2155I: About to 'TearDown' the deployed resource 'Test' of type 'Application'. 
2020-03-18 10:15:28.654472Z: [Thread 5640] (Msg 1/1) BIP2155I: About to 'Initialize' the deployed resource 'Test' of type 'Application'. 
2020-03-18 10:15:28.658134Z: [Thread 5640] (Msg 1/1) BIP3316W: File node 'File Output' in message flow 'Test' has no valid filename specified as property ''. 
2020-03-18 10:15:57.659284Z: [Thread 5640] (Msg 1/1) BIP2155I: About to 'Start' the deployed resource 'Test' of type 'Application'. 
2020-03-18 10:15:57.659524Z: [Thread 5640] (Msg 1/1) BIP2269I: Deployed resource 'Test' (uuid='Test',type='MessageFlow') started successfully. 
2020-03-18 10:15:57.659868Z: [Thread 5640] (Msg 1/1) BIP9332I: Application 'Test' has been changed successfully. 
2020-03-18 10:15:57.659928Z: [Thread 5640] (Msg 1/1) BIP9326I: The source 'Testproject.generated.bar' has been successfully deployed. 
2020-03-18 10:15:57.660468Z: [Thread 5640] (Msg 1/1) BIP2154I: Integration server finished with Configuration message. 
2020-03-18 10:16:19.691368Z: [Thread 11652] (Msg 1/3) BIP2628W: Exception condition detected on input node 'Test.KafkaConsumer1'. 
2020-03-18 10:16:19.691482Z: [Thread 11652] (Msg 2/3) BIP2230E: Error detected whilst processing a message in node 'Test.Java Compute'. 
2020-03-18 10:16:19.691548Z: [Thread 11652] (Msg 3/3) BIP2291E: No constant for parser class name for root element name 'chckHeader2'. 
2020-03-18 10:16:19.693168Z: [Thread 11652] (Msg 1/2) BIP2628W: Exception condition detected on input node 'Test.KafkaConsumer1'. 
2020-03-18 10:16:19.693280Z: [Thread 11652] (Msg 2/2) BIP3910I: Input node 'KafkaConsumer1' has retried a message the maximum number of times. The message is now propagated to the failure terminal. 
2020-03-18 10:16:51.799088Z: [Thread 11652] (Msg 1/3) BIP2628W: Exception condition detected on input node 'Test.KafkaConsumer1'. 
2020-03-18 10:16:51.799352Z: [Thread 11652] (Msg 2/3) BIP2230E: Error detected whilst processing a message in node 'Test.Java Compute'. 
2020-03-18 10:16:51.799508Z: [Thread 11652] (Msg 3/3) BIP2291E: No constant for parser class name for root element name 'chckHeader2'. 
2020-03-18 10:16:51.802228Z: [Thread 11652] (Msg 1/2) BIP2628W: Exception condition detected on input node 'Test.KafkaConsumer1'. 
2020-03-18 10:16:51.802384Z: [Thread 11652] (Msg 2/2) BIP3910I: Input node 'KafkaConsumer1' has retried a message the maximum number of times. The message is now propagated to the failure terminal. 
2020-03-18 10:17:35.659656Z: [Thread 11652] (Msg 1/3) BIP2628W: Exception condition detected on input node 'Test.KafkaConsumer1'. 
2020-03-18 10:17:35.659736Z: [Thread 11652] (Msg 2/3) BIP2230E: Error detected whilst processing a message in node 'Test.Java Compute'. 
2020-03-18 10:17:35.659780Z: [Thread 11652] (Msg 3/3) BIP2291E: No constant for parser class name for root element name 'chckHeader2'. 
2020-03-18 10:17:35.660848Z: [Thread 11652] (Msg 1/2) BIP2628W: Exception condition detected on input node 'Test.KafkaConsumer1'. 
2020-03-18 10:17:35.660916Z: [Thread 11652] (Msg 2/2) BIP3910I: Input node 'KafkaConsumer1' has retried a message the maximum number of times. The message is now propagated to the failure terminal. 
2020-03-18 10:18:30.071126Z: [Thread 11652] (Msg 1/3) BIP2628W: Exception condition detected on input node 'Test.KafkaConsumer1'. 
2020-03-18 10:18:30.071200Z: [Thread 11652] (Msg 2/3) BIP2230E: Error detected whilst processing a message in node 'Test.Java Compute'. 
2020-03-18 10:18:30.071248Z: [Thread 11652] (Msg 3/3) BIP2291E: No constant for parser class name for root element name 'jcnhdr'. 
2020-03-18 10:18:30.074556Z: [Thread 11652] (Msg 1/2) BIP2628W: Exception condition detected on input node 'Test.KafkaConsumer1'. 
2020-03-18 10:18:30.074646Z: [Thread 11652] (Msg 2/2) BIP3910I: Input node 'KafkaConsumer1' has retried a message the maximum number of times. The message is now propagated to the failure terminal. 
2020-03-18 10:19:04.925438Z: [Thread 11652] (Msg 1/3) BIP2628W: Exception condition detected on input node 'Test.KafkaConsumer1'. 
2020-03-18 10:19:04.925545Z: [Thread 11652] (Msg 2/3) BIP2230E: Error detected whilst processing a message in node 'Test.Java Compute'. 
2020-03-18 10:19:04.925608Z: [Thread 11652] (Msg 3/3) BIP2291E: No constant for parser class name for root element name 'jcnhdr'. 
2020-03-18 10:19:04.927126Z: [Thread 11652] (Msg 1/2) BIP2628W: Exception condition detected on input node 'Test.KafkaConsumer1'. 
2020-03-18 10:19:04.927208Z: [Thread 11652] (Msg 2/2) BIP3910I: Input node 'KafkaConsumer1' has retried a message the maximum number of times. The message is now propagated to the failure terminal. 
2020-03-18 11:11:27.963930Z: [Thread 8100] (Msg 1/1) BIP2152I: Configuration message received. 
2020-03-18 11:11:27.992514Z: [Thread 8100] (Msg 1/1) BIP2155I: About to 'Stop' the deployed resource 'Test' of type 'Application'. 
2020-03-18 11:11:27.992574Z: [Thread 8100] (Msg 1/1) BIP2271I: Deployed resource 'Test' (uuid='Test',type='MessageFlow') successfully stopped. 
2020-03-18 11:11:31.899586Z: [Thread 8100] (Msg 1/1) BIP2155I: About to 'TearDown' the deployed resource 'Test' of type 'Application'. 
2020-03-18 11:11:31.942260Z: [Thread 8100] (Msg 1/1) BIP2155I: About to 'Initialize' the deployed resource 'Test' of type 'Application'. 
2020-03-18 11:11:31.945136Z: [Thread 8100] (Msg 1/1) BIP3316W: File node 'File Output' in message flow 'Test' has no valid filename specified as property ''. 
2020-03-18 11:11:31.983674Z: [Thread 8100] (Msg 1/1) BIP2155I: About to 'Start' the deployed resource 'Test' of type 'Application'. 
2020-03-18 11:11:31.983840Z: [Thread 8100] (Msg 1/1) BIP2269I: Deployed resource 'Test' (uuid='Test',type='MessageFlow') started successfully. 
2020-03-18 11:11:31.984022Z: [Thread 8100] (Msg 1/1) BIP9332I: Application 'Test' has been changed successfully. 
2020-03-18 11:11:31.984144Z: [Thread 8100] (Msg 1/1) BIP9326I: The source 'Testproject.generated.bar' has been successfully deployed. 
2020-03-18 11:11:31.984536Z: [Thread 8100] (Msg 1/1) BIP2154I: Integration server finished with Configuration message. 
2020-03-18 11:11:51.279580Z: [Thread 14812] (Msg 1/3) BIP2628W: Exception condition detected on input node 'Test.KafkaConsumer1'. 
2020-03-18 11:11:51.279656Z: [Thread 14812] (Msg 2/3) BIP2230E: Error detected whilst processing a message in node 'Test.Java Compute'. 
2020-03-18 11:11:51.279692Z: [Thread 14812] (Msg 3/3) BIP4373S: Element value type com.ibm.broker.plugin.MbElement is not valid. 
2020-03-18 11:11:51.280124Z: [Thread 14812] (Msg 1/2) BIP2628W: Exception condition detected on input node 'Test.KafkaConsumer1'. 
2020-03-18 11:11:51.280200Z: [Thread 14812] (Msg 2/2) BIP3910I: Input node 'KafkaConsumer1' has retried a message the maximum number of times. The message is now propagated to the failure terminal. 
2020-03-18 11:13:06.560641Z: [Thread 14812] (Msg 1/3) BIP2628W: Exception condition detected on input node 'Test.KafkaConsumer1'. 
2020-03-18 11:13:06.560737Z: [Thread 14812] (Msg 2/3) BIP2230E: Error detected whilst processing a message in node 'Test.Java Compute'. 
2020-03-18 11:13:06.560787Z: [Thread 14812] (Msg 3/3) BIP4373S: Element value type com.ibm.broker.plugin.MbElement is not valid. 
2020-03-18 11:13:06.563680Z: [Thread 14812] (Msg 1/2) BIP2628W: Exception condition detected on input node 'Test.KafkaConsumer1'. 
2020-03-18 11:13:06.563748Z: [Thread 14812] (Msg 2/2) BIP3910I: Input node 'KafkaConsumer1' has retried a message the maximum number of times. The message is now propagated to the failure terminal. 
2020-03-18 11:14:16.920796Z: [Thread 11824] (Msg 1/1) BIP2152I: Configuration message received. 
2020-03-18 11:14:16.949502Z: [Thread 11824] (Msg 1/1) BIP2155I: About to 'Stop' the deployed resource 'Test' of type 'Application'. 
2020-03-18 11:14:16.949588Z: [Thread 11824] (Msg 1/1) BIP2271I: Deployed resource 'Test' (uuid='Test',type='MessageFlow') successfully stopped. 
2020-03-18 11:14:17.743950Z: [Thread 11824] (Msg 1/1) BIP2155I: About to 'TearDown' the deployed resource 'Test' of type 'Application'. 
2020-03-18 11:14:17.802472Z: [Thread 11824] (Msg 1/1) BIP2155I: About to 'Initialize' the deployed resource 'Test' of type 'Application'. 
2020-03-18 11:14:17.821754Z: [Thread 11824] (Msg 1/1) BIP3316W: File node 'File Output' in message flow 'Test' has no valid filename specified as property ''. 
2020-03-18 11:14:39.042904Z: [Thread 11824] (Msg 1/1) BIP2155I: About to 'Start' the deployed resource 'Test' of type 'Application'. 
2020-03-18 11:14:39.043084Z: [Thread 11824] (Msg 1/1) BIP2269I: Deployed resource 'Test' (uuid='Test',type='MessageFlow') started successfully. 
2020-03-18 11:14:39.043336Z: [Thread 11824] (Msg 1/1) BIP9332I: Application 'Test' has been changed successfully. 
2020-03-18 11:14:39.043368Z: [Thread 11824] (Msg 1/1) BIP9326I: The source 'Testproject.generated.bar' has been successfully deployed. 
2020-03-18 11:14:39.043808Z: [Thread 11824] (Msg 1/1) BIP2154I: Integration server finished with Configuration message. 
2020-03-18 11:32:35.017000Z: [Thread 10200] (Msg 1/4) BIP2628W: Exception condition detected on input node 'Test.KafkaConsumer1'. 
2020-03-18 11:32:35.017104Z: [Thread 10200] (Msg 2/4) BIP2230E: Error detected whilst processing a message in node 'Test.Java Compute'. 
2020-03-18 11:32:35.017144Z: [Thread 10200] (Msg 3/4) BIP4367E: The method 'evaluate' in Java node 'Java Compute' has thrown the following exception: java.lang.NullPointerException. 
2020-03-18 11:32:35.017180Z: [Thread 10200] (Msg 4/4) BIP4395E: Java exception: 'java.lang.NullPointerException'; thrown from class name: 'com.kafkapoc.jcnheaders.Test_JavaCompute', method name: 'evaluate', file: 'Test_JavaCompute.java', line: '31' 
2020-03-18 11:32:35.017480Z: [Thread 10200] (Msg 1/2) BIP2628W: Exception condition detected on input node 'Test.KafkaConsumer1'. 
2020-03-18 11:32:35.017528Z: [Thread 10200] (Msg 2/2) BIP3910I: Input node 'KafkaConsumer1' has retried a message the maximum number of times. The message is now propagated to the failure terminal. 
2020-03-18 11:34:39.969836Z: [Thread 10200] (Msg 1/4) BIP2628W: Exception condition detected on input node 'Test.KafkaConsumer1'. 
2020-03-18 11:34:39.969920Z: [Thread 10200] (Msg 2/4) BIP2230E: Error detected whilst processing a message in node 'Test.Java Compute'. 
2020-03-18 11:34:39.969980Z: [Thread 10200] (Msg 3/4) BIP4367E: The method 'evaluate' in Java node 'Java Compute' has thrown the following exception: java.lang.NullPointerException. 
2020-03-18 11:34:39.970032Z: [Thread 10200] (Msg 4/4) BIP4395E: Java exception: 'java.lang.NullPointerException'; thrown from class name: 'com.kafkapoc.jcnheaders.Test_JavaCompute', method name: 'evaluate', file: 'Test_JavaCompute.java', line: '31' 
2020-03-18 11:34:39.970416Z: [Thread 10200] (Msg 1/2) BIP2628W: Exception condition detected on input node 'Test.KafkaConsumer1'. 
2020-03-18 11:34:39.970488Z: [Thread 10200] (Msg 2/2) BIP3910I: Input node 'KafkaConsumer1' has retried a message the maximum number of times. The message is now propagated to the failure terminal. 
2020-03-18 11:36:49.521348Z: [Thread 10200] (Msg 1/4) BIP2628W: Exception condition detected on input node 'Test.KafkaConsumer1'. 
2020-03-18 11:36:49.521404Z: [Thread 10200] (Msg 2/4) BIP2230E: Error detected whilst processing a message in node 'Test.Java Compute'. 
2020-03-18 11:36:49.521444Z: [Thread 10200] (Msg 3/4) BIP4367E: The method 'evaluate' in Java node 'Java Compute' has thrown the following exception: java.lang.NullPointerException. 
2020-03-18 11:36:49.521476Z: [Thread 10200] (Msg 4/4) BIP4395E: Java exception: 'java.lang.NullPointerException'; thrown from class name: 'com.kafkapoc.jcnheaders.Test_JavaCompute', method name: 'evaluate', file: 'Test_JavaCompute.java', line: '31' 
2020-03-18 11:36:49.521740Z: [Thread 10200] (Msg 1/2) BIP2628W: Exception condition detected on input node 'Test.KafkaConsumer1'. 
2020-03-18 11:36:49.521784Z: [Thread 10200] (Msg 2/2) BIP3910I: Input node 'KafkaConsumer1' has retried a message the maximum number of times. The message is now propagated to the failure terminal. 
2020-03-18 11:43:47.291852Z: [Thread 10200] (Msg 1/4) BIP2628W: Exception condition detected on input node 'Test.KafkaConsumer1'. 
2020-03-18 11:43:47.292004Z: [Thread 10200] (Msg 2/4) BIP2230E: Error detected whilst processing a message in node 'Test.Java Compute'. 
2020-03-18 11:43:47.292064Z: [Thread 10200] (Msg 3/4) BIP4367E: The method 'evaluate' in Java node 'Java Compute' has thrown the following exception: java.lang.NullPointerException. 
2020-03-18 11:43:47.292140Z: [Thread 10200] (Msg 4/4) BIP4395E: Java exception: 'java.lang.NullPointerException'; thrown from class name: 'com.kafkapoc.jcnheaders.Test_JavaCompute', method name: 'evaluate', file: 'Test_JavaCompute.java', line: '31' 
2020-03-18 11:43:47.292668Z: [Thread 10200] (Msg 1/2) BIP2628W: Exception condition detected on input node 'Test.KafkaConsumer1'. 
2020-03-18 11:43:47.292740Z: [Thread 10200] (Msg 2/2) BIP3910I: Input node 'KafkaConsumer1' has retried a message the maximum number of times. The message is now propagated to the failure terminal. 
2020-03-18 11:45:25.938186Z: [Thread 10200] (Msg 1/4) BIP2628W: Exception condition detected on input node 'Test.KafkaConsumer1'. 
2020-03-18 11:45:25.938276Z: [Thread 10200] (Msg 2/4) BIP2230E: Error detected whilst processing a message in node 'Test.Java Compute'. 
2020-03-18 11:45:25.938330Z: [Thread 10200] (Msg 3/4) BIP4367E: The method 'evaluate' in Java node 'Java Compute' has thrown the following exception: java.lang.NullPointerException. 
2020-03-18 11:45:25.938386Z: [Thread 10200] (Msg 4/4) BIP4395E: Java exception: 'java.lang.NullPointerException'; thrown from class name: 'com.kafkapoc.jcnheaders.Test_JavaCompute', method name: 'evaluate', file: 'Test_JavaCompute.java', line: '31' 
2020-03-18 11:45:25.938922Z: [Thread 10200] (Msg 1/2) BIP2628W: Exception condition detected on input node 'Test.KafkaConsumer1'. 
2020-03-18 11:45:25.939000Z: [Thread 10200] (Msg 2/2) BIP3910I: Input node 'KafkaConsumer1' has retried a message the maximum number of times. The message is now propagated to the failure terminal. 
2020-03-18 11:46:48.358800Z: [Thread 10200] (Msg 1/4) BIP2628W: Exception condition detected on input node 'Test.KafkaConsumer1'. 
2020-03-18 11:46:48.358892Z: [Thread 10200] (Msg 2/4) BIP2230E: Error detected whilst processing a message in node 'Test.Java Compute'. 
2020-03-18 11:46:48.358952Z: [Thread 10200] (Msg 3/4) BIP4367E: The method 'evaluate' in Java node 'Java Compute' has thrown the following exception: java.lang.NullPointerException. 
2020-03-18 11:46:48.359024Z: [Thread 10200] (Msg 4/4) BIP4395E: Java exception: 'java.lang.NullPointerException'; thrown from class name: 'com.kafkapoc.jcnheaders.Test_JavaCompute', method name: 'evaluate', file: 'Test_JavaCompute.java', line: '31' 
2020-03-18 11:46:48.359480Z: [Thread 10200] (Msg 1/2) BIP2628W: Exception condition detected on input node 'Test.KafkaConsumer1'. 
2020-03-18 11:46:48.359576Z: [Thread 10200] (Msg 2/2) BIP3910I: Input node 'KafkaConsumer1' has retried a message the maximum number of times. The message is now propagated to the failure terminal. 
2020-03-18 11:51:31.445700Z: [Thread 10200] (Msg 1/4) BIP2628W: Exception condition detected on input node 'Test.KafkaConsumer1'. 
2020-03-18 11:51:31.445796Z: [Thread 10200] (Msg 2/4) BIP2230E: Error detected whilst processing a message in node 'Test.Java Compute'. 
2020-03-18 11:51:31.445854Z: [Thread 10200] (Msg 3/4) BIP4367E: The method 'evaluate' in Java node 'Java Compute' has thrown the following exception: java.lang.NullPointerException. 
2020-03-18 11:51:31.445906Z: [Thread 10200] (Msg 4/4) BIP4395E: Java exception: 'java.lang.NullPointerException'; thrown from class name: 'com.kafkapoc.jcnheaders.Test_JavaCompute', method name: 'evaluate', file: 'Test_JavaCompute.java', line: '31' 
2020-03-18 11:51:31.446250Z: [Thread 10200] (Msg 1/2) BIP2628W: Exception condition detected on input node 'Test.KafkaConsumer1'. 
2020-03-18 11:51:31.446324Z: [Thread 10200] (Msg 2/2) BIP3910I: Input node 'KafkaConsumer1' has retried a message the maximum number of times. The message is now propagated to the failure terminal. 
2020-03-18 11:59:49.437600Z: [Thread 10200] (Msg 1/4) BIP2628W: Exception condition detected on input node 'Test.KafkaConsumer1'. 
2020-03-18 11:59:49.437704Z: [Thread 10200] (Msg 2/4) BIP2230E: Error detected whilst processing a message in node 'Test.Java Compute'. 
2020-03-18 11:59:49.437768Z: [Thread 10200] (Msg 3/4) BIP4367E: The method 'evaluate' in Java node 'Java Compute' has thrown the following exception: java.lang.NullPointerException. 
2020-03-18 11:59:49.437820Z: [Thread 10200] (Msg 4/4) BIP4395E: Java exception: 'java.lang.NullPointerException'; thrown from class name: 'com.kafkapoc.jcnheaders.Test_JavaCompute', method name: 'evaluate', file: 'Test_JavaCompute.java', line: '31' 
2020-03-18 11:59:49.438424Z: [Thread 10200] (Msg 1/2) BIP2628W: Exception condition detected on input node 'Test.KafkaConsumer1'. 
2020-03-18 11:59:49.438516Z: [Thread 10200] (Msg 2/2) BIP3910I: Input node 'KafkaConsumer1' has retried a message the maximum number of times. The message is now propagated to the failure terminal. 
2020-03-18 12:01:57.356908Z: [Thread 10200] (Msg 1/4) BIP2628W: Exception condition detected on input node 'Test.KafkaConsumer1'. 
2020-03-18 12:01:57.356992Z: [Thread 10200] (Msg 2/4) BIP2230E: Error detected whilst processing a message in node 'Test.Java Compute'. 
2020-03-18 12:01:57.357052Z: [Thread 10200] (Msg 3/4) BIP4367E: The method 'evaluate' in Java node 'Java Compute' has thrown the following exception: java.lang.NullPointerException. 
2020-03-18 12:01:57.357100Z: [Thread 10200] (Msg 4/4) BIP4395E: Java exception: 'java.lang.NullPointerException'; thrown from class name: 'com.kafkapoc.jcnheaders.Test_JavaCompute', method name: 'evaluate', file: 'Test_JavaCompute.java', line: '31' 
2020-03-18 12:01:57.357900Z: [Thread 10200] (Msg 1/2) BIP2628W: Exception condition detected on input node 'Test.KafkaConsumer1'. 
2020-03-18 12:01:57.357952Z: [Thread 10200] (Msg 2/2) BIP3910I: Input node 'KafkaConsumer1' has retried a message the maximum number of times. The message is now propagated to the failure terminal. 
