2020-03-17 06:26:39.934708Z: [Thread 4568] (Msg 1/1) BIP1990I: Integration server 'Consumer_SERVER' starting initialization; version '11.0.0.7' (64-bit) 
2020-03-17 06:26:47.744032Z: [Thread 4568] (Msg 1/1) BIP2155I: About to 'Initialize' the deployed resource 'Test' of type 'Application'. 
2020-03-17 06:26:49.741808Z: [Thread 4568] (Msg 1/1) BIP2155I: About to 'Start' the deployed resource 'Test' of type 'Application'. 
2020-03-17 06:26:49.742264Z: [Thread 4568] (Msg 1/1) BIP2269I: Deployed resource 'Test' (uuid='Test',type='MessageFlow') started successfully. 
2020-03-17 06:26:58.510800Z: [Thread 11416] (Msg 1/1) BIP2866I: IBM App Connect Enterprise administration security is inactive. 
2020-03-17 06:26:58.579436Z: [Thread 11416] (Msg 1/1) BIP3132I: The HTTP Listener has started listening on port '7602' for 'RestAdmin http' connections. 
2020-03-17 06:26:58.596944Z: [Thread 4568] (Msg 1/1) BIP1991I: Integration server has finished initialization. 
2020-03-17 06:27:50.634008Z: [Thread 11992] (Msg 1/1) BIP4362E: Java node error: [BIPmsgs:3891]BIP3891E: The Kafka input connector was unable to subscribe to topic 'myfirsttopic' on Kafka server at address 'INDIA-Maha.perficient.com:9093'. Explanation 'Timeout expired while fetching topic metadata'. 
2020-03-17 06:27:50.637024Z: [Thread 1640] (Msg 1/1) BIP4362E: Java node error: [BIPmsgs:3891]BIP3891E: The Kafka input connector was unable to subscribe to topic 'myfirsttopic' on Kafka server at address 'INDIA-Maha.perficient.com:9093'. Explanation 'Timeout expired while fetching topic metadata'. 
2020-03-17 06:28:50.715652Z: [Thread 11992] (Msg 1/1) BIP4362E: Java node error: [BIPmsgs:3891]BIP3891E: The Kafka input connector was unable to subscribe to topic 'myfirsttopic' on Kafka server at address 'INDIA-Maha.perficient.com:9093'. Explanation 'Timeout expired while fetching topic metadata'. 
2020-03-17 06:28:50.716244Z: [Thread 1640] (Msg 1/1) BIP4362E: Java node error: [BIPmsgs:3891]BIP3891E: The Kafka input connector was unable to subscribe to topic 'myfirsttopic' on Kafka server at address 'INDIA-Maha.perficient.com:9093'. Explanation 'Timeout expired while fetching topic metadata'. 
2020-03-17 06:34:40.967032Z: [Thread 1640] (Msg 1/1) BIP4362E: Java node error: [BIPmsgs:3891]BIP3891E: The Kafka input connector was unable to subscribe to topic 'myfirsttopic' on Kafka server at address 'INDIA-Maha.perficient.com:9093'. Explanation 'Timeout expired while fetching topic metadata'. 
2020-03-17 06:34:40.971104Z: [Thread 11992] (Msg 1/1) BIP4362E: Java node error: [BIPmsgs:3891]BIP3891E: The Kafka input connector was unable to subscribe to topic 'myfirsttopic' on Kafka server at address 'INDIA-Maha.perficient.com:9093'. Explanation 'Timeout expired while fetching topic metadata'. 
2020-03-17 07:32:58.526500Z: [Thread 12716] (Msg 1/1) BIP2152I: Configuration message received. 
2020-03-17 07:32:58.585840Z: [Thread 12716] (Msg 1/1) BIP2155I: About to 'Stop' the deployed resource 'Test' of type 'Application'. 
2020-03-17 07:32:58.585928Z: [Thread 12716] (Msg 1/1) BIP2271I: Deployed resource 'Test' (uuid='Test',type='MessageFlow') successfully stopped. 
2020-03-17 07:33:00.935783Z: [Thread 12716] (Msg 1/1) BIP2155I: About to 'TearDown' the deployed resource 'Test' of type 'Application'. 
2020-03-17 07:33:00.981633Z: [Thread 12716] (Msg 1/1) BIP2155I: About to 'Initialize' the deployed resource 'Test' of type 'Application'. 
2020-03-17 07:33:00.986217Z: [Thread 12716] (Msg 1/2) BIP9318E: Request to 'PreSetupValidate' resource 'Test', 'Test' of type 'Application' failed. 
2020-03-17 07:33:00.986395Z: [Thread 12716] (Msg 2/2) BIP2432E: (.Test_headers.Main, 5.8) : The correlation name 'chk' is not valid. Those in scope are: Environment, InputLocalEnvironment, OutputLocalEnvironment, InputRoot, InputBody, InputProperties, OutputRoot, InputExceptionList, OutputExceptionList, InputDestinationList, OutputDestinationList. 
2020-03-17 07:33:00.986545Z: [Thread 12716] (Msg 1/1) BIP9333W: Application 'Test' has been changed but contains errors which has prevented some resources from starting. 
2020-03-17 07:33:00.986635Z: [Thread 12716] (Msg 1/1) BIP1096E: The source 'Testproject.generated.bar' has been deployed but there were one or more failures which may mean the deployed resources will be unable to execute. 
2020-03-17 07:33:00.987383Z: [Thread 12716] (Msg 1/1) BIP2154I: Integration server finished with Configuration message. 
2020-03-17 07:33:34.754428Z: [Thread 6500] (Msg 1/1) BIP2152I: Configuration message received. 
2020-03-17 07:33:34.812036Z: [Thread 6500] (Msg 1/1) BIP2155I: About to 'Initialize' the deployed resource 'Test' of type 'Application'. 
2020-03-17 07:33:34.869288Z: [Thread 6500] (Msg 1/1) BIP2155I: About to 'Start' the deployed resource 'Test' of type 'Application'. 
2020-03-17 07:33:34.869452Z: [Thread 6500] (Msg 1/1) BIP2269I: Deployed resource 'Test' (uuid='Test',type='MessageFlow') started successfully. 
2020-03-17 07:33:34.869636Z: [Thread 6500] (Msg 1/1) BIP9332I: Application 'Test' has been changed successfully. 
2020-03-17 07:33:34.869680Z: [Thread 6500] (Msg 1/1) BIP9326I: The source 'Testproject.generated.bar' has been successfully deployed. 
2020-03-17 07:33:34.869992Z: [Thread 6500] (Msg 1/1) BIP2154I: Integration server finished with Configuration message. 
2020-03-17 07:37:27.661432Z: [Thread 4904] (Msg 1/1) BIP2152I: Configuration message received. 
2020-03-17 07:37:27.714488Z: [Thread 4904] (Msg 1/1) BIP2155I: About to 'Stop' the deployed resource 'Test' of type 'Application'. 
2020-03-17 07:37:27.714598Z: [Thread 4904] (Msg 1/1) BIP2271I: Deployed resource 'Test' (uuid='Test',type='MessageFlow') successfully stopped. 
2020-03-17 07:37:29.552138Z: [Thread 4904] (Msg 1/1) BIP2155I: About to 'TearDown' the deployed resource 'Test' of type 'Application'. 
2020-03-17 07:37:29.581828Z: [Thread 4904] (Msg 1/1) BIP2155I: About to 'Initialize' the deployed resource 'Test' of type 'Application'. 
2020-03-17 07:37:29.633428Z: [Thread 4904] (Msg 1/1) BIP2155I: About to 'Start' the deployed resource 'Test' of type 'Application'. 
2020-03-17 07:37:29.633602Z: [Thread 4904] (Msg 1/1) BIP2269I: Deployed resource 'Test' (uuid='Test',type='MessageFlow') started successfully. 
2020-03-17 07:37:29.633752Z: [Thread 4904] (Msg 1/1) BIP9332I: Application 'Test' has been changed successfully. 
2020-03-17 07:37:29.633790Z: [Thread 4904] (Msg 1/1) BIP9326I: The source 'Testproject.generated.bar' has been successfully deployed. 
2020-03-17 07:37:29.634132Z: [Thread 4904] (Msg 1/1) BIP2154I: Integration server finished with Configuration message. 
2020-03-17 07:46:30.928384Z: [Thread 13356] (Msg 1/1) BIP2152I: Configuration message received. 
2020-03-17 07:46:30.977926Z: [Thread 13356] (Msg 1/1) BIP2155I: About to 'Stop' the deployed resource 'Test' of type 'Application'. 
2020-03-17 07:46:30.978018Z: [Thread 13356] (Msg 1/1) BIP2271I: Deployed resource 'Test' (uuid='Test',type='MessageFlow') successfully stopped. 
2020-03-17 07:46:33.044434Z: [Thread 13356] (Msg 1/1) BIP2155I: About to 'TearDown' the deployed resource 'Test' of type 'Application'. 
2020-03-17 07:46:33.099362Z: [Thread 13356] (Msg 1/1) BIP2155I: About to 'Initialize' the deployed resource 'Test' of type 'Application'. 
2020-03-17 07:46:33.107910Z: [Thread 13356] (Msg 1/1) BIP3316W: File node 'File Output' in message flow 'Test' has no valid filename specified as property ''. 
2020-03-17 07:46:33.135250Z: [Thread 13356] (Msg 1/1) BIP2155I: About to 'Start' the deployed resource 'Test' of type 'Application'. 
2020-03-17 07:46:33.135430Z: [Thread 13356] (Msg 1/1) BIP2269I: Deployed resource 'Test' (uuid='Test',type='MessageFlow') started successfully. 
2020-03-17 07:46:33.135586Z: [Thread 13356] (Msg 1/1) BIP9332I: Application 'Test' has been changed successfully. 
2020-03-17 07:46:33.135632Z: [Thread 13356] (Msg 1/1) BIP9326I: The source 'Testproject.generated.bar' has been successfully deployed. 
2020-03-17 07:46:33.135978Z: [Thread 13356] (Msg 1/1) BIP2154I: Integration server finished with Configuration message. 
2020-03-17 07:47:21.358152Z: [Thread 1532] (Msg 1/3) BIP2628W: Exception condition detected on input node 'Test.KafkaConsumer1'. 
2020-03-17 07:47:21.358316Z: [Thread 1532] (Msg 2/3) BIP2230E: Error detected whilst processing a message in node 'Test.File Output'. 
2020-03-17 07:47:21.358400Z: [Thread 1532] (Msg 3/3) BIP3325E: File node 'File Output' in message flow 'Test' cannot use the directory 'D:\Kafka\test\' for file name ''. 
2020-03-17 07:47:21.360132Z: [Thread 1532] (Msg 1/2) BIP2628W: Exception condition detected on input node 'Test.KafkaConsumer1'. 
2020-03-17 07:47:21.360238Z: [Thread 1532] (Msg 2/2) BIP3910I: Input node 'KafkaConsumer1' has retried a message the maximum number of times. The message is now propagated to the failure terminal. 
2020-03-17 07:48:25.526076Z: [Thread 7432] (Msg 1/1) BIP2152I: Configuration message received. 
2020-03-17 07:48:25.558716Z: [Thread 7432] (Msg 1/1) BIP2155I: About to 'Stop' the deployed resource 'Test' of type 'Application'. 
2020-03-17 07:48:25.558796Z: [Thread 7432] (Msg 1/1) BIP2271I: Deployed resource 'Test' (uuid='Test',type='MessageFlow') successfully stopped. 
2020-03-17 07:48:27.378742Z: [Thread 7432] (Msg 1/1) BIP2155I: About to 'TearDown' the deployed resource 'Test' of type 'Application'. 
2020-03-17 07:48:27.435718Z: [Thread 7432] (Msg 1/1) BIP2155I: About to 'Initialize' the deployed resource 'Test' of type 'Application'. 
2020-03-17 07:48:27.440592Z: [Thread 7432] (Msg 1/1) BIP3316W: File node 'File Output' in message flow 'Test' has no valid filename specified as property ''. 
2020-03-17 07:48:27.475054Z: [Thread 7432] (Msg 1/1) BIP2155I: About to 'Start' the deployed resource 'Test' of type 'Application'. 
2020-03-17 07:48:27.475214Z: [Thread 7432] (Msg 1/1) BIP2269I: Deployed resource 'Test' (uuid='Test',type='MessageFlow') started successfully. 
2020-03-17 07:48:27.475352Z: [Thread 7432] (Msg 1/1) BIP9332I: Application 'Test' has been changed successfully. 
2020-03-17 07:48:27.475390Z: [Thread 7432] (Msg 1/1) BIP9326I: The source 'Testproject.generated.bar' has been successfully deployed. 
2020-03-17 07:48:27.475720Z: [Thread 7432] (Msg 1/1) BIP2154I: Integration server finished with Configuration message. 
2020-03-17 07:49:31.585156Z: [Thread 8644] (Msg 1/3) BIP2628W: Exception condition detected on input node 'Test.KafkaConsumer1'. 
2020-03-17 07:49:31.585264Z: [Thread 8644] (Msg 2/3) BIP2230E: Error detected whilst processing a message in node 'Test.File Output'. 
2020-03-17 07:49:31.585358Z: [Thread 8644] (Msg 3/3) BIP3325E: File node 'File Output' in message flow 'Test' cannot use the directory 'D:\Kafka\test\' for file name ''. 
2020-03-17 07:49:31.586972Z: [Thread 8644] (Msg 1/2) BIP2628W: Exception condition detected on input node 'Test.KafkaConsumer1'. 
2020-03-17 07:49:31.587082Z: [Thread 8644] (Msg 2/2) BIP3910I: Input node 'KafkaConsumer1' has retried a message the maximum number of times. The message is now propagated to the failure terminal. 
2020-03-17 07:51:55.289980Z: [Thread 6440] (Msg 1/1) BIP2152I: Configuration message received. 
2020-03-17 07:51:55.322244Z: [Thread 6440] (Msg 1/1) BIP2155I: About to 'Stop' the deployed resource 'Test' of type 'Application'. 
2020-03-17 07:51:55.322324Z: [Thread 6440] (Msg 1/1) BIP2271I: Deployed resource 'Test' (uuid='Test',type='MessageFlow') successfully stopped. 
2020-03-17 07:51:57.628004Z: [Thread 6440] (Msg 1/1) BIP2155I: About to 'TearDown' the deployed resource 'Test' of type 'Application'. 
2020-03-17 07:51:57.684840Z: [Thread 6440] (Msg 1/1) BIP2155I: About to 'Initialize' the deployed resource 'Test' of type 'Application'. 
2020-03-17 07:51:57.687252Z: [Thread 6440] (Msg 1/1) BIP3316W: File node 'File Output' in message flow 'Test' has no valid filename specified as property ''. 
2020-03-17 07:51:57.708320Z: [Thread 6440] (Msg 1/1) BIP2155I: About to 'Start' the deployed resource 'Test' of type 'Application'. 
2020-03-17 07:51:57.708508Z: [Thread 6440] (Msg 1/1) BIP2269I: Deployed resource 'Test' (uuid='Test',type='MessageFlow') started successfully. 
2020-03-17 07:51:57.708664Z: [Thread 6440] (Msg 1/1) BIP9332I: Application 'Test' has been changed successfully. 
2020-03-17 07:51:57.708704Z: [Thread 6440] (Msg 1/1) BIP9326I: The source 'Testproject.generated.bar' has been successfully deployed. 
2020-03-17 07:51:57.709056Z: [Thread 6440] (Msg 1/1) BIP2154I: Integration server finished with Configuration message. 
