2020-02-28 14:10:42.183396Z: [Thread 18948] (Msg 1/1) BIP1990I: Integration server 'Consumer_SERVER' starting initialization; version '11.0.0.7' (64-bit) 
2020-02-28 14:10:53.332712Z: [Thread 18948] (Msg 1/1) BIP2155I: About to 'Initialize' the deployed resource 'Test' of type 'Application'. 
2020-02-28 14:10:54.228996Z: [Thread 18948] (Msg 1/1) BIP2155I: About to 'Start' the deployed resource 'Test' of type 'Application'. 
2020-02-28 14:10:54.229592Z: [Thread 18948] (Msg 1/1) BIP2269I: Deployed resource 'Test' (uuid='Test',type='MessageFlow') started successfully. 
2020-02-28 14:11:08.291753Z: [Thread 9336] (Msg 1/1) BIP2866I: IBM App Connect Enterprise administration security is inactive. 
2020-02-28 14:11:08.346183Z: [Thread 9336] (Msg 1/1) BIP3132I: The HTTP Listener has started listening on port '7602' for 'RestAdmin http' connections. 
2020-02-28 14:11:08.355335Z: [Thread 18948] (Msg 1/1) BIP1991I: Integration server has finished initialization. 
