2020-03-17 13:10:02.344094Z: [Thread 17852] (Msg 1/1) BIP1990I: Integration server 'Consumer_SERVER' starting initialization; version '11.0.0.7' (64-bit) 
2020-03-17 13:10:05.218211Z: [Thread 17852] (Msg 1/1) BIP2155I: About to 'Initialize' the deployed resource 'Test' of type 'Application'. 
2020-03-17 13:10:05.518028Z: [Thread 17852] (Msg 1/1) BIP3316W: File node 'File Output' in message flow 'Test' has no valid filename specified as property ''. 
2020-03-17 13:10:05.719200Z: [Thread 17852] (Msg 1/1) BIP2155I: About to 'Start' the deployed resource 'Test' of type 'Application'. 
2020-03-17 13:10:05.724961Z: [Thread 17852] (Msg 1/1) BIP2269I: Deployed resource 'Test' (uuid='Test',type='MessageFlow') started successfully. 
2020-03-17 13:10:06.580569Z: [Thread 14312] (Msg 1/1) BIP2866I: IBM App Connect Enterprise administration security is inactive. 
2020-03-17 13:10:06.599038Z: [Thread 14312] (Msg 1/1) BIP3132I: The HTTP Listener has started listening on port '7602' for 'RestAdmin http' connections. 
2020-03-17 13:10:06.602225Z: [Thread 17852] (Msg 1/1) BIP1991I: Integration server has finished initialization. 
