2020-02-25 08:04:52.121836Z: [Thread 19120] (Msg 1/1) BIP1990I: Integration server 'Consumer_SERVER' starting initialization; version '11.0.0.7' (64-bit) 
2020-02-25 08:04:55.298064Z: [Thread 2456] (Msg 1/1) BIP2866I: IBM App Connect Enterprise administration security is inactive. 
2020-02-25 08:04:55.311824Z: [Thread 2456] (Msg 1/1) BIP3132I: The HTTP Listener has started listening on port '7602' for 'RestAdmin http' connections. 
2020-02-25 08:04:55.316000Z: [Thread 19120] (Msg 1/1) BIP1991I: Integration server has finished initialization. 
2020-02-25 08:06:33.785604Z: [Thread 19188] (Msg 1/1) BIP2152I: Configuration message received. 
2020-02-25 08:06:33.808520Z: [Thread 19188] (Msg 1/1) BIP2155I: About to 'Initialize' the deployed resource 'Test' of type 'Application'. 
2020-02-25 08:06:34.066812Z: [Thread 19188] (Msg 1/1) BIP2155I: About to 'Start' the deployed resource 'Test' of type 'Application'. 
2020-02-25 08:06:34.073016Z: [Thread 19188] (Msg 1/1) BIP2269I: Deployed resource 'Test' (uuid='Test',type='MessageFlow') started successfully. 
2020-02-25 08:06:34.073644Z: [Thread 19188] (Msg 1/1) BIP9332I: Application 'Test' has been created successfully. 
2020-02-25 08:06:34.073800Z: [Thread 19188] (Msg 1/1) BIP9326I: The source 'Testproject.generated.bar' has been successfully deployed. 
2020-02-25 08:06:34.074980Z: [Thread 19188] (Msg 1/1) BIP2154I: Integration server finished with Configuration message. 
2020-02-25 08:10:42.143452Z: [Thread 19188] (Msg 1/1) BIP2152I: Configuration message received. 
2020-02-25 08:10:42.168864Z: [Thread 19188] (Msg 1/1) BIP2155I: About to 'Stop' the deployed resource 'Test' of type 'Application'. 
2020-02-25 08:10:42.168928Z: [Thread 19188] (Msg 1/1) BIP2271I: Deployed resource 'Test' (uuid='Test',type='MessageFlow') successfully stopped. 
2020-02-25 08:16:01.983522Z: [Thread 19188] (Msg 1/2) BIP9325E: The source 'Testproject.generated.bar' could not be deployed as it contains errors. No changes have been made to the integration server. 
2020-02-25 08:16:01.983841Z: [Thread 19188] (Msg 2/2) BIP2242E: Message flow 'Test' could not be reconfigured because it remained busy for longer than the timeout period of '300000' 
2020-02-25 08:16:01.992023Z: [Thread 19188] (Msg 1/1) BIP2154I: Integration server finished with Configuration message. 
2020-02-25 08:16:02.004435Z: [Thread 19192] (Msg 1/1) BIP2152I: Configuration message received. 
2020-02-25 08:16:02.031225Z: [Thread 19192] (Msg 1/1) BIP2155I: About to 'Stop' the deployed resource 'Test' of type 'Application'. 
2020-02-25 08:16:02.031294Z: [Thread 19192] (Msg 1/1) BIP2271I: Deployed resource 'Test' (uuid='Test',type='MessageFlow') successfully stopped. 
2020-02-25 08:17:12.921229Z: [Thread 19192] (Msg 1/1) BIP2155I: About to 'TearDown' the deployed resource 'Test' of type 'Application'. 
2020-02-25 08:17:12.943383Z: [Thread 19192] (Msg 1/1) BIP2155I: About to 'Initialize' the deployed resource 'Test' of type 'Application'. 
2020-02-25 08:17:12.960126Z: [Thread 19192] (Msg 1/1) BIP2155I: About to 'Start' the deployed resource 'Test' of type 'Application'. 
2020-02-25 08:17:12.960265Z: [Thread 19192] (Msg 1/1) BIP2269I: Deployed resource 'Test' (uuid='Test',type='MessageFlow') started successfully. 
2020-02-25 08:17:12.960428Z: [Thread 19192] (Msg 1/1) BIP9332I: Application 'Test' has been changed successfully. 
2020-02-25 08:17:12.960462Z: [Thread 19192] (Msg 1/1) BIP9326I: The source 'Testproject.generated.bar' has been successfully deployed. 
2020-02-25 08:17:12.960770Z: [Thread 19192] (Msg 1/1) BIP2154I: Integration server finished with Configuration message. 
