2020-02-25 07:09:06.857940Z: [Thread 7108] (Msg 1/1) BIP1990I: Integration server 'Producer_SERVER' starting initialization; version '11.0.0.7' (64-bit) 
2020-02-25 07:09:22.007808Z: [Thread 7108] (Msg 1/1) BIP2155I: About to 'Initialize' the deployed resource 'Kafka_Producer' of type 'Application'. 
2020-02-25 07:09:22.892626Z: [Thread 7108] (Msg 1/1) BIP2155I: About to 'Start' the deployed resource 'Kafka_Producer' of type 'Application'. 
2020-02-25 07:09:22.892794Z: [Thread 7108] (Msg 1/1) BIP2269I: Deployed resource 'Producer_Kafka' (uuid='Producer_Kafka',type='MessageFlow') started successfully. 
2020-02-25 07:09:22.930646Z: [Thread 7108] (Msg 1/1) BIP3132I: The HTTP Listener has started listening on port '7800' for 'http' connections. 
2020-02-25 07:09:22.930888Z: [Thread 7108] (Msg 1/1) BIP1996I: Listening on HTTP URL '/kafkademo'. 
2020-02-25 07:09:42.053700Z: [Thread 11316] (Msg 1/1) BIP2866I: IBM App Connect Enterprise administration security is inactive. 
2020-02-25 07:09:42.161024Z: [Thread 11316] (Msg 1/1) BIP3132I: The HTTP Listener has started listening on port '7601' for 'RestAdmin http' connections. 
2020-02-25 07:09:42.165928Z: [Thread 7108] (Msg 1/1) BIP1991I: Integration server has finished initialization. 
2020-02-25 07:10:45.027916Z: [Thread 7172] (Msg 1/1) BIP2152I: Configuration message received. 
2020-02-25 07:10:48.868892Z: [Thread 7172] (Msg 1/1) BIP2155I: About to 'Stop' the deployed resource 'Kafka_Producer' of type 'Application'. 
2020-02-25 07:10:48.868984Z: [Thread 7172] (Msg 1/1) BIP2271I: Deployed resource 'Producer_Kafka' (uuid='Producer_Kafka',type='MessageFlow') successfully stopped. 
2020-02-25 07:10:48.876128Z: [Thread 7172] (Msg 1/1) BIP2155I: About to 'TearDown' the deployed resource 'Kafka_Producer' of type 'Application'. 
2020-02-25 07:10:48.893568Z: [Thread 7172] (Msg 1/1) BIP3133I: The HTTP Listener has stopped listening on port '7800' for 'http' connections. 
2020-02-25 07:10:48.941080Z: [Thread 7172] (Msg 1/1) BIP2155I: About to 'Initialize' the deployed resource 'Kafka_Producer' of type 'Application'. 
2020-02-25 07:10:48.989892Z: [Thread 7172] (Msg 1/1) BIP2155I: About to 'Start' the deployed resource 'Kafka_Producer' of type 'Application'. 
2020-02-25 07:10:48.990160Z: [Thread 7172] (Msg 1/1) BIP2269I: Deployed resource 'Producer_Kafka' (uuid='Producer_Kafka',type='MessageFlow') started successfully. 
2020-02-25 07:10:49.017508Z: [Thread 7172] (Msg 1/1) BIP3132I: The HTTP Listener has started listening on port '7800' for 'http' connections. 
2020-02-25 07:10:49.017664Z: [Thread 7172] (Msg 1/1) BIP1996I: Listening on HTTP URL '/kafkademo'. 
2020-02-25 07:10:49.017968Z: [Thread 7172] (Msg 1/1) BIP9332I: Application 'Kafka_Producer' has been changed successfully. 
2020-02-25 07:10:49.018096Z: [Thread 7172] (Msg 1/1) BIP9326I: The source 'Kafka_Producerproject.generated.bar' has been successfully deployed. 
2020-02-25 07:10:49.025656Z: [Thread 7172] (Msg 1/1) BIP2154I: Integration server finished with Configuration message. 
2020-02-25 07:14:43.159964Z: [Thread 17116] (Msg 1/1) BIP4362E: Java node error: [BIPmsgs:3893]BIP3893E: The Kafka publish operation by client '' failed because details for topic 'my-replicated-topic' could not be retrieved from the Kafka server at address 'INDIA-Maha.perficient.com:9093'. Explanation 'org.apache.kafka.common.errors.TimeoutException: Expiring 1 record(s) for my-replicated-topic-0:120001 ms has passed since batch creation'. 
2020-02-25 07:14:43.185472Z: [Thread 17116] (Msg 1/3) BIP3120E: Exception condition detected on input node 'Producer_Kafka.HTTP Input'. 
2020-02-25 07:14:43.185540Z: [Thread 17116] (Msg 2/3) BIP2230E: Error detected whilst processing a message in node 'Producer_Kafka.KafkaProducer'. 
2020-02-25 07:14:43.185596Z: [Thread 17116] (Msg 3/3) BIP3893E: The Kafka publish operation by client '' failed because details for topic 'my-replicated-topic' could not be retrieved from the Kafka server at address 'INDIA-Maha.perficient.com:9093'. Explanation 'org.apache.kafka.common.errors.TimeoutException: Expiring 1 record(s) for my-replicated-topic-0:120001 ms has passed since batch creation'. 
2020-02-25 07:37:02.820528Z: [Thread 7172] (Msg 1/1) BIP2152I: Configuration message received. 
2020-02-25 07:37:03.224324Z: [Thread 7172] (Msg 1/1) BIP2155I: About to 'Stop' the deployed resource 'Kafka_Producer' of type 'Application'. 
2020-02-25 07:37:03.224644Z: [Thread 7172] (Msg 1/1) BIP2271I: Deployed resource 'Producer_Kafka' (uuid='Producer_Kafka',type='MessageFlow') successfully stopped. 
2020-02-25 07:37:03.225244Z: [Thread 7172] (Msg 1/1) BIP2155I: About to 'TearDown' the deployed resource 'Kafka_Producer' of type 'Application'. 
2020-02-25 07:37:03.281006Z: [Thread 7172] (Msg 1/1) BIP3133I: The HTTP Listener has stopped listening on port '7800' for 'http' connections. 
2020-02-25 07:37:03.316382Z: [Thread 7172] (Msg 1/1) BIP2155I: About to 'Initialize' the deployed resource 'Kafka_Producer' of type 'Application'. 
2020-02-25 07:37:03.345372Z: [Thread 7172] (Msg 1/1) BIP2155I: About to 'Start' the deployed resource 'Kafka_Producer' of type 'Application'. 
2020-02-25 07:37:03.345531Z: [Thread 7172] (Msg 1/1) BIP2269I: Deployed resource 'Producer_Kafka' (uuid='Producer_Kafka',type='MessageFlow') started successfully. 
2020-02-25 07:37:03.370633Z: [Thread 7172] (Msg 1/1) BIP3132I: The HTTP Listener has started listening on port '7800' for 'http' connections. 
2020-02-25 07:37:03.370778Z: [Thread 7172] (Msg 1/1) BIP1996I: Listening on HTTP URL '/kafkademo'. 
2020-02-25 07:37:03.371076Z: [Thread 7172] (Msg 1/1) BIP9332I: Application 'Kafka_Producer' has been changed successfully. 
2020-02-25 07:37:03.371190Z: [Thread 7172] (Msg 1/1) BIP9326I: The source 'Kafka_Producerproject.generated.bar' has been successfully deployed. 
2020-02-25 07:37:03.371980Z: [Thread 7172] (Msg 1/1) BIP2154I: Integration server finished with Configuration message. 
