2020-03-17 06:26:35.434788Z: [Thread 2964] (Msg 1/1) BIP1990I: Integration server 'Producer_SERVER' starting initialization; version '11.0.0.7' (64-bit) 
2020-03-17 06:26:47.743816Z: [Thread 2964] (Msg 1/1) BIP2155I: About to 'Initialize' the deployed resource 'Kafka_Producer' of type 'Application'. 
2020-03-17 06:26:48.511688Z: [Thread 2964] (Msg 1/1) BIP2155I: About to 'Start' the deployed resource 'Kafka_Producer' of type 'Application'. 
2020-03-17 06:26:48.512588Z: [Thread 2964] (Msg 1/1) BIP2269I: Deployed resource 'Producer_Kafka' (uuid='Producer_Kafka',type='MessageFlow') started successfully. 
2020-03-17 06:26:48.548088Z: [Thread 2964] (Msg 1/1) BIP3132I: The HTTP Listener has started listening on port '7800' for 'http' connections. 
2020-03-17 06:26:48.548436Z: [Thread 2964] (Msg 1/1) BIP1996I: Listening on HTTP URL '/kafkademo'. 
2020-03-17 06:26:58.510844Z: [Thread 8584] (Msg 1/1) BIP2866I: IBM App Connect Enterprise administration security is inactive. 
2020-03-17 06:26:58.573972Z: [Thread 8584] (Msg 1/1) BIP3132I: The HTTP Listener has started listening on port '7601' for 'RestAdmin http' connections. 
2020-03-17 06:26:58.597292Z: [Thread 2964] (Msg 1/1) BIP1991I: Integration server has finished initialization. 
2020-03-17 06:46:45.840056Z: [Thread 9908] (Msg 1/1) BIP4362E: Java node error: [BIPmsgs:3893]BIP3893E: The Kafka publish operation by client '' failed because details for topic 'myfirsttopic' could not be retrieved from the Kafka server at address 'INDIA-Maha.perficient.com:9093'. Explanation 'org.apache.kafka.common.errors.TimeoutException: Topic myfirsttopic not present in metadata after 60000 ms.'. 
2020-03-17 06:46:45.846028Z: [Thread 9908] (Msg 1/3) BIP3120E: Exception condition detected on input node 'Producer_Kafka.HTTP Input'. 
2020-03-17 06:46:45.846088Z: [Thread 9908] (Msg 2/3) BIP2230E: Error detected whilst processing a message in node 'Producer_Kafka.KafkaProducer'. 
2020-03-17 06:46:45.846140Z: [Thread 9908] (Msg 3/3) BIP3893E: The Kafka publish operation by client '' failed because details for topic 'myfirsttopic' could not be retrieved from the Kafka server at address 'INDIA-Maha.perficient.com:9093'. Explanation 'org.apache.kafka.common.errors.TimeoutException: Topic myfirsttopic not present in metadata after 60000 ms.'. 
2020-03-17 07:28:19.933020Z: [Thread 9908] (Msg 1/1) BIP4362E: Java node error: [BIPmsgs:3894]BIP3894E: Request to publish message to the Kafka topic 'myfirsttopic' by client '' failed. Explanation 'org.apache.kafka.common.errors.TimeoutException: Expiring 1 record(s) for myfirsttopic-0:120001 ms has passed since batch creation'. 
2020-03-17 07:28:19.936378Z: [Thread 9908] (Msg 1/3) BIP3120E: Exception condition detected on input node 'Producer_Kafka.HTTP Input'. 
2020-03-17 07:28:19.936578Z: [Thread 9908] (Msg 2/3) BIP2230E: Error detected whilst processing a message in node 'Producer_Kafka.KafkaProducer'. 
2020-03-17 07:28:19.936822Z: [Thread 9908] (Msg 3/3) BIP3894E: Request to publish message to the Kafka topic 'myfirsttopic' by client '' failed. Explanation 'org.apache.kafka.common.errors.TimeoutException: Expiring 1 record(s) for myfirsttopic-0:120001 ms has passed since batch creation'. 
2020-03-17 07:32:05.060594Z: [Thread 13844] (Msg 1/1) BIP2152I: Configuration message received. 
2020-03-17 07:32:06.362512Z: [Thread 13844] (Msg 1/1) BIP2155I: About to 'Stop' the deployed resource 'Kafka_Producer' of type 'Application'. 
2020-03-17 07:32:06.362804Z: [Thread 13844] (Msg 1/1) BIP2271I: Deployed resource 'Producer_Kafka' (uuid='Producer_Kafka',type='MessageFlow') successfully stopped. 
2020-03-17 07:32:06.364015Z: [Thread 13844] (Msg 1/1) BIP2155I: About to 'TearDown' the deployed resource 'Kafka_Producer' of type 'Application'. 
2020-03-17 07:32:06.408058Z: [Thread 13844] (Msg 1/1) BIP3133I: The HTTP Listener has stopped listening on port '7800' for 'http' connections. 
2020-03-17 07:32:06.434447Z: [Thread 13844] (Msg 1/1) BIP2155I: About to 'Initialize' the deployed resource 'Kafka_Producer' of type 'Application'. 
2020-03-17 07:32:06.479099Z: [Thread 13844] (Msg 1/1) BIP2155I: About to 'Start' the deployed resource 'Kafka_Producer' of type 'Application'. 
2020-03-17 07:32:06.479330Z: [Thread 13844] (Msg 1/1) BIP2269I: Deployed resource 'Producer_Kafka' (uuid='Producer_Kafka',type='MessageFlow') started successfully. 
2020-03-17 07:32:06.504782Z: [Thread 13844] (Msg 1/1) BIP3132I: The HTTP Listener has started listening on port '7800' for 'http' connections. 
2020-03-17 07:32:06.504928Z: [Thread 13844] (Msg 1/1) BIP1996I: Listening on HTTP URL '/kafkademo'. 
2020-03-17 07:32:06.505391Z: [Thread 13844] (Msg 1/1) BIP9332I: Application 'Kafka_Producer' has been changed successfully. 
2020-03-17 07:32:06.505508Z: [Thread 13844] (Msg 1/1) BIP9326I: The source 'Kafka_Producerproject.generated.bar' has been successfully deployed. 
2020-03-17 07:32:06.506311Z: [Thread 13844] (Msg 1/1) BIP2154I: Integration server finished with Configuration message. 
2020-03-17 07:35:12.901921Z: [Thread 9676] (Msg 1/1) BIP2152I: Configuration message received. 
2020-03-17 07:35:15.728733Z: [Thread 9676] (Msg 1/1) BIP2155I: About to 'Stop' the deployed resource 'Kafka_Producer' of type 'Application'. 
2020-03-17 07:35:15.729049Z: [Thread 9676] (Msg 1/1) BIP2271I: Deployed resource 'Producer_Kafka' (uuid='Producer_Kafka',type='MessageFlow') successfully stopped. 
2020-03-17 07:35:15.729447Z: [Thread 9676] (Msg 1/1) BIP2155I: About to 'TearDown' the deployed resource 'Kafka_Producer' of type 'Application'. 
2020-03-17 07:35:15.772811Z: [Thread 9676] (Msg 1/1) BIP3133I: The HTTP Listener has stopped listening on port '7800' for 'http' connections. 
2020-03-17 07:35:15.809965Z: [Thread 9676] (Msg 1/1) BIP2155I: About to 'Initialize' the deployed resource 'Kafka_Producer' of type 'Application'. 
2020-03-17 07:35:15.842925Z: [Thread 9676] (Msg 1/1) BIP2155I: About to 'Start' the deployed resource 'Kafka_Producer' of type 'Application'. 
2020-03-17 07:35:15.843098Z: [Thread 9676] (Msg 1/1) BIP2269I: Deployed resource 'Producer_Kafka' (uuid='Producer_Kafka',type='MessageFlow') started successfully. 
2020-03-17 07:35:15.869422Z: [Thread 9676] (Msg 1/1) BIP3132I: The HTTP Listener has started listening on port '7800' for 'http' connections. 
2020-03-17 07:35:15.869752Z: [Thread 9676] (Msg 1/1) BIP1996I: Listening on HTTP URL '/kafkademo'. 
2020-03-17 07:35:15.870305Z: [Thread 9676] (Msg 1/1) BIP9332I: Application 'Kafka_Producer' has been changed successfully. 
2020-03-17 07:35:15.870478Z: [Thread 9676] (Msg 1/1) BIP9326I: The source 'Kafka_Producerproject.generated.bar' has been successfully deployed. 
2020-03-17 07:35:15.871704Z: [Thread 9676] (Msg 1/1) BIP2154I: Integration server finished with Configuration message. 
