2020-02-14 10:09:13.192128Z: [Thread 12996] (Msg 1/1) BIP1990I: Integration server 'Producer_SERVER' starting initialization; version '11.0.0.7' (64-bit) 
2020-02-14 10:09:33.333966Z: [Thread 19780] (Msg 1/1) BIP2866I: IBM App Connect Enterprise administration security is inactive. 
2020-02-14 10:09:33.370052Z: [Thread 19780] (Msg 1/1) BIP3132I: The HTTP Listener has started listening on port '7601' for 'RestAdmin http' connections. 
2020-02-14 10:09:33.373700Z: [Thread 12996] (Msg 1/1) BIP1991I: Integration server has finished initialization. 
2020-02-14 10:12:11.499876Z: [Thread 20036] (Msg 1/1) BIP2152I: Configuration message received. 
2020-02-14 10:12:11.582029Z: [Thread 20036] (Msg 1/1) BIP2155I: About to 'Initialize' the deployed resource 'Kafka_Producer' of type 'Application'. 
2020-02-14 10:12:12.107813Z: [Thread 20036] (Msg 1/1) BIP2155I: About to 'Start' the deployed resource 'Kafka_Producer' of type 'Application'. 
2020-02-14 10:12:12.108333Z: [Thread 20036] (Msg 1/1) BIP2269I: Deployed resource 'Producer_Kafka' (uuid='Producer_Kafka',type='MessageFlow') started successfully. 
2020-02-14 10:12:12.134559Z: [Thread 20036] (Msg 1/1) BIP3132I: The HTTP Listener has started listening on port '7800' for 'http' connections. 
2020-02-14 10:12:12.134871Z: [Thread 20036] (Msg 1/1) BIP1996I: Listening on HTTP URL '/kafkademo'. 
2020-02-14 10:12:12.135170Z: [Thread 20036] (Msg 1/1) BIP9332I: Application 'Kafka_Producer' has been created successfully. 
2020-02-14 10:12:12.135260Z: [Thread 20036] (Msg 1/1) BIP9326I: The source 'Kafka_Producerproject.generated.bar' has been successfully deployed. 
2020-02-14 10:12:12.136056Z: [Thread 20036] (Msg 1/1) BIP2154I: Integration server finished with Configuration message. 
2020-02-14 10:19:57.551616Z: [Thread 20036] (Msg 1/1) BIP2155I: About to 'Stop' the deployed resource 'Kafka_Producer' of type 'Application'. 
2020-02-14 10:19:57.552052Z: [Thread 20036] (Msg 1/1) BIP2271I: Deployed resource 'Producer_Kafka' (uuid='Producer_Kafka',type='MessageFlow') successfully stopped. 
2020-02-14 10:19:57.553084Z: [Thread 20036] (Msg 1/1) BIP2155I: About to 'TearDown' the deployed resource 'Kafka_Producer' of type 'Application'. 
2020-02-14 10:19:57.615464Z: [Thread 20036] (Msg 1/1) BIP3133I: The HTTP Listener has stopped listening on port '7800' for 'http' connections. 
2020-02-14 10:21:44.941540Z: [Thread 19276] (Msg 1/1) BIP2152I: Configuration message received. 
2020-02-14 10:21:45.019028Z: [Thread 19276] (Msg 1/1) BIP2155I: About to 'Initialize' the deployed resource 'Kafka_Producer' of type 'Application'. 
2020-02-14 10:21:45.075628Z: [Thread 19276] (Msg 1/2) BIP9320E: Message Flow 'Producer_Kafka', 'Producer_Kafka' encountered a failure and could not start. 
2020-02-14 10:21:45.075692Z: [Thread 19276] (Msg 2/2) BIP3986E: The Kafka Producer node 'Producer_Kafka_KafkaProducer' has been configured with the security protocol 'SASL_PLAINTEXT' and the security identity '' but the security identity has not been defined. 
2020-02-14 10:21:45.075736Z: [Thread 19276] (Msg 1/1) BIP2155I: About to 'Start' the deployed resource 'Kafka_Producer' of type 'Application'. 
2020-02-14 10:21:45.075856Z: [Thread 19276] (Msg 1/1) BIP9333W: Application 'Kafka_Producer' has been created but contains errors which has prevented some resources from starting. 
2020-02-14 10:21:45.075892Z: [Thread 19276] (Msg 1/1) BIP1096E: The source 'Kafka_Producerproject.generated.bar' has been deployed but there were one or more failures which may mean the deployed resources will be unable to execute. 
2020-02-14 10:21:45.076208Z: [Thread 19276] (Msg 1/1) BIP2154I: Integration server finished with Configuration message. 
2020-02-14 10:22:03.480519Z: [Thread 19276] (Msg 1/1) BIP2152I: Configuration message received. 
2020-02-14 10:22:03.529562Z: [Thread 19276] (Msg 1/1) BIP2155I: About to 'Stop' the deployed resource 'Kafka_Producer' of type 'Application'. 
2020-02-14 10:22:03.529690Z: [Thread 19276] (Msg 1/1) BIP2155I: About to 'TearDown' the deployed resource 'Kafka_Producer' of type 'Application'. 
2020-02-14 10:22:03.552913Z: [Thread 19276] (Msg 1/1) BIP2155I: About to 'Initialize' the deployed resource 'Kafka_Producer' of type 'Application'. 
2020-02-14 10:22:03.575407Z: [Thread 19276] (Msg 1/1) BIP2155I: About to 'Start' the deployed resource 'Kafka_Producer' of type 'Application'. 
2020-02-14 10:22:03.575569Z: [Thread 19276] (Msg 1/1) BIP2269I: Deployed resource 'Producer_Kafka' (uuid='Producer_Kafka',type='MessageFlow') started successfully. 
2020-02-14 10:22:03.598946Z: [Thread 19276] (Msg 1/1) BIP3132I: The HTTP Listener has started listening on port '7800' for 'http' connections. 
2020-02-14 10:22:03.599027Z: [Thread 19276] (Msg 1/1) BIP1996I: Listening on HTTP URL '/kafkademo'. 
2020-02-14 10:22:03.599177Z: [Thread 19276] (Msg 1/1) BIP9332I: Application 'Kafka_Producer' has been changed successfully. 
2020-02-14 10:22:03.599279Z: [Thread 19276] (Msg 1/1) BIP9326I: The source 'Kafka_Producerproject.generated.bar' has been successfully deployed. 
2020-02-14 10:22:03.599731Z: [Thread 19276] (Msg 1/1) BIP2154I: Integration server finished with Configuration message. 
