2020-02-24 09:27:39.693672Z: [Thread 18228] (Msg 1/1) BIP1990I: Integration server 'Producer_SERVER' starting initialization; version '11.0.0.7' (64-bit) 
2020-02-24 09:27:46.585500Z: [Thread 18228] (Msg 1/1) BIP2155I: About to 'Initialize' the deployed resource 'Kafka_Producer' of type 'Application'. 
2020-02-24 09:27:47.019860Z: [Thread 18228] (Msg 1/1) BIP2155I: About to 'Start' the deployed resource 'Kafka_Producer' of type 'Application'. 
2020-02-24 09:27:47.020372Z: [Thread 18228] (Msg 1/1) BIP2269I: Deployed resource 'Producer_Kafka' (uuid='Producer_Kafka',type='MessageFlow') started successfully. 
2020-02-24 09:27:47.050112Z: [Thread 18228] (Msg 1/1) BIP3132I: The HTTP Listener has started listening on port '7800' for 'http' connections. 
2020-02-24 09:27:47.050336Z: [Thread 18228] (Msg 1/1) BIP1996I: Listening on HTTP URL '/kafkademo'. 
2020-02-24 09:27:51.987764Z: [Thread 728] (Msg 1/1) BIP2866I: IBM App Connect Enterprise administration security is inactive. 
2020-02-24 09:27:52.012460Z: [Thread 728] (Msg 1/1) BIP3132I: The HTTP Listener has started listening on port '7601' for 'RestAdmin http' connections. 
2020-02-24 09:27:52.019644Z: [Thread 18228] (Msg 1/1) BIP1991I: Integration server has finished initialization. 
2020-02-24 09:55:10.672007Z: [Thread 3208] (Msg 1/1) BIP2152I: Configuration message received. 
2020-02-24 09:55:11.493989Z: [Thread 14040] (Msg 1/1) BIP4362E: Java node error: [BIPmsgs:3893]BIP3893E: The Kafka publish operation by client '' failed because details for topic 'Hi-KAFKA' could not be retrieved from the Kafka server at address 'INDIA-Maha.perficient.com:9092'. Explanation 'org.apache.kafka.common.errors.TimeoutException: Topic Hi-KAFKA not present in metadata after 60000 ms.'. 
2020-02-24 09:55:11.515997Z: [Thread 14040] (Msg 1/3) BIP3120E: Exception condition detected on input node 'Producer_Kafka.HTTP Input'. 
2020-02-24 09:55:11.516062Z: [Thread 14040] (Msg 2/3) BIP2230E: Error detected whilst processing a message in node 'Producer_Kafka.KafkaProducer'. 
2020-02-24 09:55:11.516116Z: [Thread 14040] (Msg 3/3) BIP3893E: The Kafka publish operation by client '' failed because details for topic 'Hi-KAFKA' could not be retrieved from the Kafka server at address 'INDIA-Maha.perficient.com:9092'. Explanation 'org.apache.kafka.common.errors.TimeoutException: Topic Hi-KAFKA not present in metadata after 60000 ms.'. 
2020-02-24 09:55:12.517729Z: [Thread 3208] (Msg 1/1) BIP2155I: About to 'Stop' the deployed resource 'Kafka_Producer' of type 'Application'. 
2020-02-24 09:55:12.517990Z: [Thread 3208] (Msg 1/1) BIP2271I: Deployed resource 'Producer_Kafka' (uuid='Producer_Kafka',type='MessageFlow') successfully stopped. 
2020-02-24 09:55:12.523990Z: [Thread 3208] (Msg 1/1) BIP2155I: About to 'TearDown' the deployed resource 'Kafka_Producer' of type 'Application'. 
2020-02-24 09:55:12.545220Z: [Thread 3208] (Msg 1/1) BIP3133I: The HTTP Listener has stopped listening on port '7800' for 'http' connections. 
2020-02-24 09:55:12.575182Z: [Thread 3208] (Msg 1/1) BIP2155I: About to 'Initialize' the deployed resource 'Kafka_Producer' of type 'Application'. 
2020-02-24 09:55:12.615021Z: [Thread 3208] (Msg 1/1) BIP2155I: About to 'Start' the deployed resource 'Kafka_Producer' of type 'Application'. 
2020-02-24 09:55:12.615169Z: [Thread 3208] (Msg 1/1) BIP2269I: Deployed resource 'Producer_Kafka' (uuid='Producer_Kafka',type='MessageFlow') started successfully. 
2020-02-24 09:55:12.640609Z: [Thread 3208] (Msg 1/1) BIP3132I: The HTTP Listener has started listening on port '7800' for 'http' connections. 
2020-02-24 09:55:12.640695Z: [Thread 3208] (Msg 1/1) BIP1996I: Listening on HTTP URL '/kafkademo'. 
2020-02-24 09:55:12.640852Z: [Thread 3208] (Msg 1/1) BIP9332I: Application 'Kafka_Producer' has been changed successfully. 
2020-02-24 09:55:12.640904Z: [Thread 3208] (Msg 1/1) BIP9326I: The source 'Kafka_Producerproject.generated.bar' has been successfully deployed. 
2020-02-24 09:55:12.641272Z: [Thread 3208] (Msg 1/1) BIP2154I: Integration server finished with Configuration message. 
2020-02-24 09:56:45.302692Z: [Thread 3904] (Msg 1/1) BIP4362E: Java node error: [BIPmsgs:3893]BIP3893E: The Kafka publish operation by client '' failed because details for topic 'Hi-KAFKA' could not be retrieved from the Kafka server at address 'INDIA-Maha.perficient.com:9092'. Explanation 'org.apache.kafka.common.errors.TimeoutException: Topic Hi-KAFKA not present in metadata after 60000 ms.'. 
2020-02-24 09:56:45.303468Z: [Thread 3904] (Msg 1/3) BIP3120E: Exception condition detected on input node 'Producer_Kafka.HTTP Input'. 
2020-02-24 09:56:45.303536Z: [Thread 3904] (Msg 2/3) BIP2230E: Error detected whilst processing a message in node 'Producer_Kafka.KafkaProducer'. 
2020-02-24 09:56:45.303632Z: [Thread 3904] (Msg 3/3) BIP3893E: The Kafka publish operation by client '' failed because details for topic 'Hi-KAFKA' could not be retrieved from the Kafka server at address 'INDIA-Maha.perficient.com:9092'. Explanation 'org.apache.kafka.common.errors.TimeoutException: Topic Hi-KAFKA not present in metadata after 60000 ms.'. 
2020-02-24 10:00:56.607988Z: [Thread 3904] (Msg 1/1) BIP4362E: Java node error: [BIPmsgs:3894]BIP3894E: Request to publish message to the Kafka topic 'Hi-KAFKA' by client '' failed. Explanation 'org.apache.kafka.common.errors.TimeoutException: Expiring 1 record(s) for Hi-KAFKA-0:120000 ms has passed since batch creation'. 
2020-02-24 10:00:56.608972Z: [Thread 3904] (Msg 1/3) BIP3120E: Exception condition detected on input node 'Producer_Kafka.HTTP Input'. 
2020-02-24 10:00:56.609016Z: [Thread 3904] (Msg 2/3) BIP2230E: Error detected whilst processing a message in node 'Producer_Kafka.KafkaProducer'. 
2020-02-24 10:00:56.609064Z: [Thread 3904] (Msg 3/3) BIP3894E: Request to publish message to the Kafka topic 'Hi-KAFKA' by client '' failed. Explanation 'org.apache.kafka.common.errors.TimeoutException: Expiring 1 record(s) for Hi-KAFKA-0:120000 ms has passed since batch creation'. 
