2020-02-24 14:53:18.213034Z: [Thread 20276] (Msg 1/1) BIP1990I: Integration server 'Producer_SERVER' starting initialization; version '11.0.0.7' (64-bit) 
2020-02-24 14:53:21.178568Z: [Thread 20276] (Msg 1/1) BIP2155I: About to 'Initialize' the deployed resource 'Kafka_Producer' of type 'Application'. 
2020-02-24 14:53:21.387408Z: [Thread 20276] (Msg 1/1) BIP2155I: About to 'Start' the deployed resource 'Kafka_Producer' of type 'Application'. 
2020-02-24 14:53:21.387576Z: [Thread 20276] (Msg 1/1) BIP2269I: Deployed resource 'Producer_Kafka' (uuid='Producer_Kafka',type='MessageFlow') started successfully. 
2020-02-24 14:53:21.418822Z: [Thread 20276] (Msg 1/1) BIP3132I: The HTTP Listener has started listening on port '7800' for 'http' connections. 
2020-02-24 14:53:21.418946Z: [Thread 20276] (Msg 1/1) BIP1996I: Listening on HTTP URL '/kafkademo'. 
2020-02-24 14:53:22.100538Z: [Thread 19912] (Msg 1/1) BIP2866I: IBM App Connect Enterprise administration security is inactive. 
2020-02-24 14:53:22.117196Z: [Thread 19912] (Msg 1/1) BIP3132I: The HTTP Listener has started listening on port '7601' for 'RestAdmin http' connections. 
2020-02-24 14:53:22.120128Z: [Thread 20276] (Msg 1/1) BIP1991I: Integration server has finished initialization. 
2020-02-24 14:54:38.526216Z: [Thread 12252] (Msg 1/1) BIP4362E: Java node error: [BIPmsgs:3893]BIP3893E: The Kafka publish operation by client '' failed because details for topic 'Hi-KAFKA' could not be retrieved from the Kafka server at address 'INDIA-Maha.perficient.com:9092'. Explanation 'org.apache.kafka.common.errors.TimeoutException: Topic Hi-KAFKA not present in metadata after 60000 ms.'. 
2020-02-24 14:54:38.532216Z: [Thread 12252] (Msg 1/3) BIP3120E: Exception condition detected on input node 'Producer_Kafka.HTTP Input'. 
2020-02-24 14:54:38.532328Z: [Thread 12252] (Msg 2/3) BIP2230E: Error detected whilst processing a message in node 'Producer_Kafka.KafkaProducer'. 
2020-02-24 14:54:38.532412Z: [Thread 12252] (Msg 3/3) BIP3893E: The Kafka publish operation by client '' failed because details for topic 'Hi-KAFKA' could not be retrieved from the Kafka server at address 'INDIA-Maha.perficient.com:9092'. Explanation 'org.apache.kafka.common.errors.TimeoutException: Topic Hi-KAFKA not present in metadata after 60000 ms.'. 
2020-02-24 14:54:50.818540Z: [Thread 7772] (Msg 1/1) BIP2152I: Configuration message received. 
2020-02-24 14:55:10.875181Z: [Thread 7772] (Msg 1/1) BIP2155I: About to 'Stop' the deployed resource 'Kafka_Producer' of type 'Application'. 
2020-02-24 14:55:10.875424Z: [Thread 7772] (Msg 1/1) BIP2271I: Deployed resource 'Producer_Kafka' (uuid='Producer_Kafka',type='MessageFlow') successfully stopped. 
2020-02-24 14:55:39.597500Z: [Thread 12252] (Msg 1/1) BIP4362E: Java node error: [BIPmsgs:3893]BIP3893E: The Kafka publish operation by client '' failed because details for topic 'Hi-KAFKA' could not be retrieved from the Kafka server at address 'INDIA-Maha.perficient.com:9092'. Explanation 'org.apache.kafka.common.errors.TimeoutException: Topic Hi-KAFKA not present in metadata after 60000 ms.'. 
2020-02-24 14:55:39.600016Z: [Thread 12252] (Msg 1/3) BIP3120E: Exception condition detected on input node 'Producer_Kafka.HTTP Input'. 
2020-02-24 14:55:39.600188Z: [Thread 12252] (Msg 2/3) BIP2230E: Error detected whilst processing a message in node 'Producer_Kafka.KafkaProducer'. 
2020-02-24 14:55:39.600412Z: [Thread 12252] (Msg 3/3) BIP3893E: The Kafka publish operation by client '' failed because details for topic 'Hi-KAFKA' could not be retrieved from the Kafka server at address 'INDIA-Maha.perficient.com:9092'. Explanation 'org.apache.kafka.common.errors.TimeoutException: Topic Hi-KAFKA not present in metadata after 60000 ms.'. 
2020-02-24 14:55:40.602928Z: [Thread 7772] (Msg 1/1) BIP2155I: About to 'TearDown' the deployed resource 'Kafka_Producer' of type 'Application'. 
2020-02-24 14:55:40.619076Z: [Thread 7772] (Msg 1/1) BIP3133I: The HTTP Listener has stopped listening on port '7800' for 'http' connections. 
2020-02-24 14:55:40.686524Z: [Thread 7772] (Msg 1/1) BIP2155I: About to 'Initialize' the deployed resource 'Kafka_Producer' of type 'Application'. 
2020-02-24 14:55:40.787196Z: [Thread 7772] (Msg 1/1) BIP2155I: About to 'Start' the deployed resource 'Kafka_Producer' of type 'Application'. 
2020-02-24 14:55:40.787700Z: [Thread 7772] (Msg 1/1) BIP2269I: Deployed resource 'Producer_Kafka' (uuid='Producer_Kafka',type='MessageFlow') started successfully. 
2020-02-24 14:55:40.815916Z: [Thread 7772] (Msg 1/1) BIP3132I: The HTTP Listener has started listening on port '7800' for 'http' connections. 
2020-02-24 14:55:40.816036Z: [Thread 7772] (Msg 1/1) BIP1996I: Listening on HTTP URL '/kafkademo'. 
2020-02-24 14:55:40.816336Z: [Thread 7772] (Msg 1/1) BIP9332I: Application 'Kafka_Producer' has been changed successfully. 
2020-02-24 14:55:40.816416Z: [Thread 7772] (Msg 1/1) BIP9326I: The source 'Kafka_Producerproject.generated.bar' has been successfully deployed. 
2020-02-24 14:55:40.817444Z: [Thread 7772] (Msg 1/1) BIP2154I: Integration server finished with Configuration message. 
2020-02-24 14:55:46.771944Z: [Thread 19844] (Msg 1/1) BIP2155I: About to 'Stop' the deployed resource 'Kafka_Producer' of type 'Application'. 
2020-02-24 14:55:46.772208Z: [Thread 19844] (Msg 1/1) BIP2271I: Deployed resource 'Producer_Kafka' (uuid='Producer_Kafka',type='MessageFlow') successfully stopped. 
2020-02-24 14:55:46.772420Z: [Thread 19844] (Msg 1/1) BIP2155I: About to 'TearDown' the deployed resource 'Kafka_Producer' of type 'Application'. 
2020-02-24 14:55:46.796836Z: [Thread 19844] (Msg 1/1) BIP3133I: The HTTP Listener has stopped listening on port '7800' for 'http' connections. 
2020-02-24 14:55:56.669232Z: [Thread 7772] (Msg 1/1) BIP2152I: Configuration message received. 
2020-02-24 14:55:56.705852Z: [Thread 7772] (Msg 1/1) BIP2155I: About to 'Initialize' the deployed resource 'Kafka_Producer' of type 'Application'. 
2020-02-24 14:55:56.728728Z: [Thread 7772] (Msg 1/1) BIP2155I: About to 'Start' the deployed resource 'Kafka_Producer' of type 'Application'. 
2020-02-24 14:55:56.728908Z: [Thread 7772] (Msg 1/1) BIP2269I: Deployed resource 'Producer_Kafka' (uuid='Producer_Kafka',type='MessageFlow') started successfully. 
2020-02-24 14:55:56.755076Z: [Thread 7772] (Msg 1/1) BIP3132I: The HTTP Listener has started listening on port '7800' for 'http' connections. 
2020-02-24 14:55:56.755224Z: [Thread 7772] (Msg 1/1) BIP1996I: Listening on HTTP URL '/kafkademo'. 
2020-02-24 14:55:56.755548Z: [Thread 7772] (Msg 1/1) BIP9332I: Application 'Kafka_Producer' has been created successfully. 
2020-02-24 14:55:56.755804Z: [Thread 7772] (Msg 1/1) BIP9326I: The source 'Kafka_Producerproject.generated.bar' has been successfully deployed. 
2020-02-24 14:55:56.756960Z: [Thread 7772] (Msg 1/1) BIP2154I: Integration server finished with Configuration message. 
2020-02-24 14:58:18.786338Z: [Thread 11244] (Msg 1/1) BIP4362E: Java node error: [BIPmsgs:3893]BIP3893E: The Kafka publish operation by client '' failed because details for topic 'Hi-KAFKA' could not be retrieved from the Kafka server at address 'INDIA-Maha.perficient.com:9093'. Explanation 'org.apache.kafka.common.errors.TimeoutException: Expiring 1 record(s) for Hi-KAFKA-0:120000 ms has passed since batch creation'. 
2020-02-24 14:58:18.791918Z: [Thread 11244] (Msg 1/3) BIP3120E: Exception condition detected on input node 'Producer_Kafka.HTTP Input'. 
2020-02-24 14:58:18.792198Z: [Thread 11244] (Msg 2/3) BIP2230E: Error detected whilst processing a message in node 'Producer_Kafka.KafkaProducer'. 
2020-02-24 14:58:18.792588Z: [Thread 11244] (Msg 3/3) BIP3893E: The Kafka publish operation by client '' failed because details for topic 'Hi-KAFKA' could not be retrieved from the Kafka server at address 'INDIA-Maha.perficient.com:9093'. Explanation 'org.apache.kafka.common.errors.TimeoutException: Expiring 1 record(s) for Hi-KAFKA-0:120000 ms has passed since batch creation'. 
2020-02-24 14:59:44.946012Z: [Thread 7772] (Msg 1/1) BIP2152I: Configuration message received. 
2020-02-24 14:59:49.801732Z: [Thread 7772] (Msg 1/1) BIP2155I: About to 'Stop' the deployed resource 'Kafka_Producer' of type 'Application'. 
2020-02-24 14:59:49.801992Z: [Thread 7772] (Msg 1/1) BIP2271I: Deployed resource 'Producer_Kafka' (uuid='Producer_Kafka',type='MessageFlow') successfully stopped. 
2020-02-24 14:59:49.802144Z: [Thread 7772] (Msg 1/1) BIP2155I: About to 'TearDown' the deployed resource 'Kafka_Producer' of type 'Application'. 
2020-02-24 14:59:49.818996Z: [Thread 7772] (Msg 1/1) BIP3133I: The HTTP Listener has stopped listening on port '7800' for 'http' connections. 
2020-02-24 14:59:49.847800Z: [Thread 7772] (Msg 1/1) BIP2155I: About to 'Initialize' the deployed resource 'Kafka_Producer' of type 'Application'. 
2020-02-24 14:59:49.884604Z: [Thread 7772] (Msg 1/1) BIP2155I: About to 'Start' the deployed resource 'Kafka_Producer' of type 'Application'. 
2020-02-24 14:59:49.884772Z: [Thread 7772] (Msg 1/1) BIP2269I: Deployed resource 'Producer_Kafka' (uuid='Producer_Kafka',type='MessageFlow') started successfully. 
2020-02-24 14:59:49.910076Z: [Thread 7772] (Msg 1/1) BIP3132I: The HTTP Listener has started listening on port '7800' for 'http' connections. 
2020-02-24 14:59:49.910268Z: [Thread 7772] (Msg 1/1) BIP1996I: Listening on HTTP URL '/kafkademo'. 
2020-02-24 14:59:49.910548Z: [Thread 7772] (Msg 1/1) BIP9332I: Application 'Kafka_Producer' has been changed successfully. 
2020-02-24 14:59:49.910712Z: [Thread 7772] (Msg 1/1) BIP9326I: The source 'Kafka_Producerproject.generated.bar' has been successfully deployed. 
2020-02-24 14:59:49.911520Z: [Thread 7772] (Msg 1/1) BIP2154I: Integration server finished with Configuration message. 
