2020-03-17 13:08:31.414948Z: [Thread 4800] (Msg 1/1) BIP1990I: Integration server 'Producer_SERVER' starting initialization; version '11.0.0.7' (64-bit) 
2020-03-17 13:08:39.534268Z: [Thread 4800] (Msg 1/1) BIP2155I: About to 'Initialize' the deployed resource 'Kafka_Producer' of type 'Application'. 
2020-03-17 13:08:39.908692Z: [Thread 4800] (Msg 1/1) BIP2155I: About to 'Start' the deployed resource 'Kafka_Producer' of type 'Application'. 
2020-03-17 13:08:39.908864Z: [Thread 4800] (Msg 1/1) BIP2269I: Deployed resource 'Producer_Kafka' (uuid='Producer_Kafka',type='MessageFlow') started successfully. 
2020-03-17 13:08:39.939576Z: [Thread 4800] (Msg 1/1) BIP3132I: The HTTP Listener has started listening on port '7800' for 'http' connections. 
2020-03-17 13:08:39.939748Z: [Thread 4800] (Msg 1/1) BIP1996I: Listening on HTTP URL '/kafkademo'. 
2020-03-17 13:08:47.268872Z: [Thread 2876] (Msg 1/1) BIP2866I: IBM App Connect Enterprise administration security is inactive. 
2020-03-17 13:08:47.293964Z: [Thread 2876] (Msg 1/1) BIP3132I: The HTTP Listener has started listening on port '7601' for 'RestAdmin http' connections. 
2020-03-17 13:08:47.295644Z: [Thread 4800] (Msg 1/1) BIP1991I: Integration server has finished initialization. 
