2020-02-28 14:10:37.684260Z: [Thread 19336] (Msg 1/1) BIP1990I: Integration server 'Producer_SERVER' starting initialization; version '11.0.0.7' (64-bit) 
2020-02-28 14:10:53.332796Z: [Thread 19336] (Msg 1/1) BIP2155I: About to 'Initialize' the deployed resource 'Kafka_Producer' of type 'Application'. 
2020-02-28 14:10:54.048708Z: [Thread 19336] (Msg 1/1) BIP2155I: About to 'Start' the deployed resource 'Kafka_Producer' of type 'Application'. 
2020-02-28 14:10:54.049536Z: [Thread 19336] (Msg 1/1) BIP2269I: Deployed resource 'Producer_Kafka' (uuid='Producer_Kafka',type='MessageFlow') started successfully. 
2020-02-28 14:10:54.086552Z: [Thread 19336] (Msg 1/1) BIP3132I: The HTTP Listener has started listening on port '7800' for 'http' connections. 
2020-02-28 14:10:54.086724Z: [Thread 19336] (Msg 1/1) BIP1996I: Listening on HTTP URL '/kafkademo'. 
2020-02-28 14:11:08.291444Z: [Thread 19268] (Msg 1/1) BIP2866I: IBM App Connect Enterprise administration security is inactive. 
2020-02-28 14:11:08.346187Z: [Thread 19268] (Msg 1/1) BIP3132I: The HTTP Listener has started listening on port '7601' for 'RestAdmin http' connections. 
2020-02-28 14:11:08.355777Z: [Thread 19336] (Msg 1/1) BIP1991I: Integration server has finished initialization. 
