2020-03-18 08:46:50.503268Z: [Thread 17176] (Msg 1/1) BIP1990I: Integration server 'Producer_SERVER' starting initialization; version '11.0.0.7' (64-bit) 
2020-03-18 08:47:04.905690Z: [Thread 17176] (Msg 1/1) BIP2155I: About to 'Initialize' the deployed resource 'Kafka_Producer' of type 'Application'. 
2020-03-18 08:47:05.999443Z: [Thread 17176] (Msg 1/1) BIP2155I: About to 'Start' the deployed resource 'Kafka_Producer' of type 'Application'. 
2020-03-18 08:47:05.999887Z: [Thread 17176] (Msg 1/1) BIP2269I: Deployed resource 'Producer_Kafka' (uuid='Producer_Kafka',type='MessageFlow') started successfully. 
2020-03-18 08:47:06.038582Z: [Thread 17176] (Msg 1/1) BIP3132I: The HTTP Listener has started listening on port '7800' for 'http' connections. 
2020-03-18 08:47:06.038889Z: [Thread 17176] (Msg 1/1) BIP1996I: Listening on HTTP URL '/kafkademo'. 
2020-03-18 08:47:22.412556Z: [Thread 19936] (Msg 1/1) BIP2866I: IBM App Connect Enterprise administration security is inactive. 
2020-03-18 08:47:22.506756Z: [Thread 19936] (Msg 1/1) BIP3132I: The HTTP Listener has started listening on port '7601' for 'RestAdmin http' connections. 
2020-03-18 08:47:22.524882Z: [Thread 17176] (Msg 1/1) BIP1991I: Integration server has finished initialization. 
2020-03-18 11:30:00.103163Z: [Thread 14952] (Msg 1/1) BIP2152I: Configuration message received. 
2020-03-18 11:30:03.448667Z: [Thread 14952] (Msg 1/1) BIP2155I: About to 'Stop' the deployed resource 'Kafka_Producer' of type 'Application'. 
2020-03-18 11:30:03.449050Z: [Thread 14952] (Msg 1/1) BIP2271I: Deployed resource 'Producer_Kafka' (uuid='Producer_Kafka',type='MessageFlow') successfully stopped. 
2020-03-18 11:30:03.450754Z: [Thread 14952] (Msg 1/1) BIP2155I: About to 'TearDown' the deployed resource 'Kafka_Producer' of type 'Application'. 
2020-03-18 11:30:03.498432Z: [Thread 14952] (Msg 1/1) BIP3133I: The HTTP Listener has stopped listening on port '7800' for 'http' connections. 
2020-03-18 11:30:03.540316Z: [Thread 14952] (Msg 1/1) BIP2155I: About to 'Initialize' the deployed resource 'Kafka_Producer' of type 'Application'. 
2020-03-18 11:30:03.612766Z: [Thread 14952] (Msg 1/1) BIP2155I: About to 'Start' the deployed resource 'Kafka_Producer' of type 'Application'. 
2020-03-18 11:30:03.612931Z: [Thread 14952] (Msg 1/1) BIP2269I: Deployed resource 'Producer_Kafka' (uuid='Producer_Kafka',type='MessageFlow') started successfully. 
2020-03-18 11:30:03.638707Z: [Thread 14952] (Msg 1/1) BIP3132I: The HTTP Listener has started listening on port '7800' for 'http' connections. 
2020-03-18 11:30:03.638870Z: [Thread 14952] (Msg 1/1) BIP1996I: Listening on HTTP URL '/kafkademo'. 
2020-03-18 11:30:03.639336Z: [Thread 14952] (Msg 1/1) BIP9332I: Application 'Kafka_Producer' has been changed successfully. 
2020-03-18 11:30:03.639455Z: [Thread 14952] (Msg 1/1) BIP9326I: The source 'Kafka_Producerproject.generated.bar' has been successfully deployed. 
2020-03-18 11:30:03.640392Z: [Thread 14952] (Msg 1/1) BIP2154I: Integration server finished with Configuration message. 
2020-03-18 11:33:50.728472Z: [Thread 4616] (Msg 1/1) BIP2152I: Configuration message received. 
2020-03-18 11:33:55.039092Z: [Thread 4616] (Msg 1/1) BIP2155I: About to 'Stop' the deployed resource 'Kafka_Producer' of type 'Application'. 
2020-03-18 11:33:55.039416Z: [Thread 4616] (Msg 1/1) BIP2271I: Deployed resource 'Producer_Kafka' (uuid='Producer_Kafka',type='MessageFlow') successfully stopped. 
2020-03-18 11:33:55.040124Z: [Thread 4616] (Msg 1/1) BIP2155I: About to 'TearDown' the deployed resource 'Kafka_Producer' of type 'Application'. 
2020-03-18 11:33:55.098920Z: [Thread 4616] (Msg 1/1) BIP3133I: The HTTP Listener has stopped listening on port '7800' for 'http' connections. 
2020-03-18 11:33:55.142324Z: [Thread 4616] (Msg 1/1) BIP2155I: About to 'Initialize' the deployed resource 'Kafka_Producer' of type 'Application'. 
2020-03-18 11:33:55.201884Z: [Thread 4616] (Msg 1/1) BIP2155I: About to 'Start' the deployed resource 'Kafka_Producer' of type 'Application'. 
2020-03-18 11:33:55.202032Z: [Thread 4616] (Msg 1/1) BIP2269I: Deployed resource 'Producer_Kafka' (uuid='Producer_Kafka',type='MessageFlow') started successfully. 
2020-03-18 11:33:55.226000Z: [Thread 4616] (Msg 1/1) BIP3132I: The HTTP Listener has started listening on port '7800' for 'http' connections. 
2020-03-18 11:33:55.226080Z: [Thread 4616] (Msg 1/1) BIP1996I: Listening on HTTP URL '/kafkademo'. 
2020-03-18 11:33:55.226316Z: [Thread 4616] (Msg 1/1) BIP9332I: Application 'Kafka_Producer' has been changed successfully. 
2020-03-18 11:33:55.226368Z: [Thread 4616] (Msg 1/1) BIP9326I: The source 'Kafka_Producerproject.generated.bar' has been successfully deployed. 
2020-03-18 11:33:55.226796Z: [Thread 4616] (Msg 1/1) BIP2154I: Integration server finished with Configuration message. 
2020-03-18 11:36:14.895871Z: [Thread 12256] (Msg 1/1) BIP2152I: Configuration message received. 
2020-03-18 11:36:15.002833Z: [Thread 12256] (Msg 1/1) BIP2155I: About to 'Stop' the deployed resource 'Kafka_Producer' of type 'Application'. 
2020-03-18 11:36:15.003098Z: [Thread 12256] (Msg 1/1) BIP2271I: Deployed resource 'Producer_Kafka' (uuid='Producer_Kafka',type='MessageFlow') successfully stopped. 
2020-03-18 11:36:15.004038Z: [Thread 12256] (Msg 1/1) BIP2155I: About to 'TearDown' the deployed resource 'Kafka_Producer' of type 'Application'. 
2020-03-18 11:36:15.057589Z: [Thread 12256] (Msg 1/1) BIP3133I: The HTTP Listener has stopped listening on port '7800' for 'http' connections. 
2020-03-18 11:36:15.078604Z: [Thread 12256] (Msg 1/1) BIP2155I: About to 'Initialize' the deployed resource 'Kafka_Producer' of type 'Application'. 
2020-03-18 11:36:15.140760Z: [Thread 12256] (Msg 1/1) BIP2155I: About to 'Start' the deployed resource 'Kafka_Producer' of type 'Application'. 
2020-03-18 11:36:15.140975Z: [Thread 12256] (Msg 1/1) BIP2269I: Deployed resource 'Producer_Kafka' (uuid='Producer_Kafka',type='MessageFlow') started successfully. 
2020-03-18 11:36:15.167250Z: [Thread 12256] (Msg 1/1) BIP3132I: The HTTP Listener has started listening on port '7800' for 'http' connections. 
2020-03-18 11:36:15.167410Z: [Thread 12256] (Msg 1/1) BIP1996I: Listening on HTTP URL '/kafkademo'. 
2020-03-18 11:36:15.167893Z: [Thread 12256] (Msg 1/1) BIP9332I: Application 'Kafka_Producer' has been changed successfully. 
2020-03-18 11:36:15.168008Z: [Thread 12256] (Msg 1/1) BIP9326I: The source 'Kafka_Producerproject.generated.bar' has been successfully deployed. 
2020-03-18 11:36:15.168978Z: [Thread 12256] (Msg 1/1) BIP2154I: Integration server finished with Configuration message. 
2020-03-18 11:42:05.732597Z: [Thread 13132] (Msg 1/1) BIP2152I: Configuration message received. 
2020-03-18 11:42:09.573180Z: [Thread 13132] (Msg 1/1) BIP2155I: About to 'Stop' the deployed resource 'Kafka_Producer' of type 'Application'. 
2020-03-18 11:42:09.573498Z: [Thread 13132] (Msg 1/1) BIP2271I: Deployed resource 'Producer_Kafka' (uuid='Producer_Kafka',type='MessageFlow') successfully stopped. 
2020-03-18 11:42:09.574004Z: [Thread 13132] (Msg 1/1) BIP2155I: About to 'TearDown' the deployed resource 'Kafka_Producer' of type 'Application'. 
2020-03-18 11:42:09.606156Z: [Thread 13132] (Msg 1/1) BIP3133I: The HTTP Listener has stopped listening on port '7800' for 'http' connections. 
2020-03-18 11:42:09.636806Z: [Thread 13132] (Msg 1/1) BIP2155I: About to 'Initialize' the deployed resource 'Kafka_Producer' of type 'Application'. 
2020-03-18 11:42:09.697493Z: [Thread 13132] (Msg 1/1) BIP2155I: About to 'Start' the deployed resource 'Kafka_Producer' of type 'Application'. 
2020-03-18 11:42:09.697657Z: [Thread 13132] (Msg 1/1) BIP2269I: Deployed resource 'Producer_Kafka' (uuid='Producer_Kafka',type='MessageFlow') started successfully. 
2020-03-18 11:42:09.723253Z: [Thread 13132] (Msg 1/1) BIP3132I: The HTTP Listener has started listening on port '7800' for 'http' connections. 
2020-03-18 11:42:09.723345Z: [Thread 13132] (Msg 1/1) BIP1996I: Listening on HTTP URL '/kafkademo'. 
2020-03-18 11:42:09.723612Z: [Thread 13132] (Msg 1/1) BIP9332I: Application 'Kafka_Producer' has been changed successfully. 
2020-03-18 11:42:09.723715Z: [Thread 13132] (Msg 1/1) BIP9326I: The source 'Kafka_Producerproject.generated.bar' has been successfully deployed. 
2020-03-18 11:42:09.724371Z: [Thread 13132] (Msg 1/1) BIP2154I: Integration server finished with Configuration message. 
2020-03-18 11:44:54.940328Z: [Thread 1516] (Msg 1/1) BIP2152I: Configuration message received. 
2020-03-18 11:44:57.309312Z: [Thread 1516] (Msg 1/1) BIP2155I: About to 'Stop' the deployed resource 'Kafka_Producer' of type 'Application'. 
2020-03-18 11:44:57.309684Z: [Thread 1516] (Msg 1/1) BIP2271I: Deployed resource 'Producer_Kafka' (uuid='Producer_Kafka',type='MessageFlow') successfully stopped. 
2020-03-18 11:44:57.310560Z: [Thread 1516] (Msg 1/1) BIP2155I: About to 'TearDown' the deployed resource 'Kafka_Producer' of type 'Application'. 
2020-03-18 11:44:57.355708Z: [Thread 1516] (Msg 1/1) BIP3133I: The HTTP Listener has stopped listening on port '7800' for 'http' connections. 
2020-03-18 11:44:57.377520Z: [Thread 1516] (Msg 1/1) BIP2155I: About to 'Initialize' the deployed resource 'Kafka_Producer' of type 'Application'. 
2020-03-18 11:44:57.430796Z: [Thread 1516] (Msg 1/1) BIP2155I: About to 'Start' the deployed resource 'Kafka_Producer' of type 'Application'. 
2020-03-18 11:44:57.435240Z: [Thread 1516] (Msg 1/1) BIP2269I: Deployed resource 'Producer_Kafka' (uuid='Producer_Kafka',type='MessageFlow') started successfully. 
2020-03-18 11:44:57.460932Z: [Thread 1516] (Msg 1/1) BIP3132I: The HTTP Listener has started listening on port '7800' for 'http' connections. 
2020-03-18 11:44:57.461096Z: [Thread 1516] (Msg 1/1) BIP1996I: Listening on HTTP URL '/kafkademo'. 
2020-03-18 11:44:57.461600Z: [Thread 1516] (Msg 1/1) BIP9332I: Application 'Kafka_Producer' has been changed successfully. 
2020-03-18 11:44:57.461708Z: [Thread 1516] (Msg 1/1) BIP9326I: The source 'Kafka_Producerproject.generated.bar' has been successfully deployed. 
2020-03-18 11:44:57.462536Z: [Thread 1516] (Msg 1/1) BIP2154I: Integration server finished with Configuration message. 
2020-03-18 11:46:30.833900Z: [Thread 5516] (Msg 1/1) BIP2152I: Configuration message received. 
2020-03-18 11:46:30.949762Z: [Thread 5516] (Msg 1/1) BIP2155I: About to 'Stop' the deployed resource 'Kafka_Producer' of type 'Application'. 
2020-03-18 11:46:30.949868Z: [Thread 5516] (Msg 1/1) BIP2271I: Deployed resource 'Producer_Kafka' (uuid='Producer_Kafka',type='MessageFlow') successfully stopped. 
2020-03-18 11:46:30.950036Z: [Thread 5516] (Msg 1/1) BIP2155I: About to 'TearDown' the deployed resource 'Kafka_Producer' of type 'Application'. 
2020-03-18 11:46:30.994416Z: [Thread 5516] (Msg 1/1) BIP3133I: The HTTP Listener has stopped listening on port '7800' for 'http' connections. 
2020-03-18 11:46:31.018244Z: [Thread 5516] (Msg 1/1) BIP2155I: About to 'Initialize' the deployed resource 'Kafka_Producer' of type 'Application'. 
2020-03-18 11:46:31.073304Z: [Thread 5516] (Msg 1/1) BIP2155I: About to 'Start' the deployed resource 'Kafka_Producer' of type 'Application'. 
2020-03-18 11:46:31.073448Z: [Thread 5516] (Msg 1/1) BIP2269I: Deployed resource 'Producer_Kafka' (uuid='Producer_Kafka',type='MessageFlow') started successfully. 
2020-03-18 11:46:31.099288Z: [Thread 5516] (Msg 1/1) BIP3132I: The HTTP Listener has started listening on port '7800' for 'http' connections. 
2020-03-18 11:46:31.099378Z: [Thread 5516] (Msg 1/1) BIP1996I: Listening on HTTP URL '/kafkademo'. 
2020-03-18 11:46:31.099652Z: [Thread 5516] (Msg 1/1) BIP9332I: Application 'Kafka_Producer' has been changed successfully. 
2020-03-18 11:46:31.099754Z: [Thread 5516] (Msg 1/1) BIP9326I: The source 'Kafka_Producerproject.generated.bar' has been successfully deployed. 
2020-03-18 11:46:31.100266Z: [Thread 5516] (Msg 1/1) BIP2154I: Integration server finished with Configuration message. 
2020-03-18 11:48:21.947822Z: [Thread 17768] (Msg 1/1) BIP2152I: Configuration message received. 
2020-03-18 11:48:23.379268Z: [Thread 17768] (Msg 1/1) BIP2155I: About to 'Stop' the deployed resource 'Kafka_Producer' of type 'Application'. 
2020-03-18 11:48:23.379756Z: [Thread 17768] (Msg 1/1) BIP2271I: Deployed resource 'Producer_Kafka' (uuid='Producer_Kafka',type='MessageFlow') successfully stopped. 
2020-03-18 11:48:23.380538Z: [Thread 17768] (Msg 1/1) BIP2155I: About to 'TearDown' the deployed resource 'Kafka_Producer' of type 'Application'. 
2020-03-18 11:48:23.429304Z: [Thread 17768] (Msg 1/1) BIP3133I: The HTTP Listener has stopped listening on port '7800' for 'http' connections. 
2020-03-18 11:48:23.449236Z: [Thread 17768] (Msg 1/1) BIP2155I: About to 'Initialize' the deployed resource 'Kafka_Producer' of type 'Application'. 
2020-03-18 11:48:23.497248Z: [Thread 17768] (Msg 1/1) BIP2155I: About to 'Start' the deployed resource 'Kafka_Producer' of type 'Application'. 
2020-03-18 11:48:23.497398Z: [Thread 17768] (Msg 1/1) BIP2269I: Deployed resource 'Producer_Kafka' (uuid='Producer_Kafka',type='MessageFlow') started successfully. 
2020-03-18 11:48:23.522552Z: [Thread 17768] (Msg 1/1) BIP3132I: The HTTP Listener has started listening on port '7800' for 'http' connections. 
2020-03-18 11:48:23.522776Z: [Thread 17768] (Msg 1/1) BIP1996I: Listening on HTTP URL '/kafkademo'. 
2020-03-18 11:48:23.523492Z: [Thread 17768] (Msg 1/1) BIP9332I: Application 'Kafka_Producer' has been changed successfully. 
2020-03-18 11:48:23.523720Z: [Thread 17768] (Msg 1/1) BIP9326I: The source 'Kafka_Producerproject.generated.bar' has been successfully deployed. 
2020-03-18 11:48:23.525394Z: [Thread 17768] (Msg 1/1) BIP2154I: Integration server finished with Configuration message. 
2020-03-18 11:50:31.032614Z: [Thread 16972] (Msg 1/1) BIP2152I: Configuration message received. 
2020-03-18 11:50:31.533974Z: [Thread 16972] (Msg 1/1) BIP2155I: About to 'Stop' the deployed resource 'Kafka_Producer' of type 'Application'. 
2020-03-18 11:50:31.534102Z: [Thread 16972] (Msg 1/1) BIP2271I: Deployed resource 'Producer_Kafka' (uuid='Producer_Kafka',type='MessageFlow') successfully stopped. 
2020-03-18 11:50:31.534342Z: [Thread 16972] (Msg 1/1) BIP2155I: About to 'TearDown' the deployed resource 'Kafka_Producer' of type 'Application'. 
2020-03-18 11:50:31.563646Z: [Thread 16972] (Msg 1/1) BIP3133I: The HTTP Listener has stopped listening on port '7800' for 'http' connections. 
2020-03-18 11:50:31.587910Z: [Thread 16972] (Msg 1/1) BIP2155I: About to 'Initialize' the deployed resource 'Kafka_Producer' of type 'Application'. 
2020-03-18 11:50:31.647826Z: [Thread 16972] (Msg 1/1) BIP2155I: About to 'Start' the deployed resource 'Kafka_Producer' of type 'Application'. 
2020-03-18 11:50:31.648038Z: [Thread 16972] (Msg 1/1) BIP2269I: Deployed resource 'Producer_Kafka' (uuid='Producer_Kafka',type='MessageFlow') started successfully. 
2020-03-18 11:50:31.673404Z: [Thread 16972] (Msg 1/1) BIP3132I: The HTTP Listener has started listening on port '7800' for 'http' connections. 
2020-03-18 11:50:31.673490Z: [Thread 16972] (Msg 1/1) BIP1996I: Listening on HTTP URL '/kafkademo'. 
2020-03-18 11:50:31.673732Z: [Thread 16972] (Msg 1/1) BIP9332I: Application 'Kafka_Producer' has been changed successfully. 
2020-03-18 11:50:31.673780Z: [Thread 16972] (Msg 1/1) BIP9326I: The source 'Kafka_Producerproject.generated.bar' has been successfully deployed. 
2020-03-18 11:50:31.674232Z: [Thread 16972] (Msg 1/1) BIP2154I: Integration server finished with Configuration message. 
2020-03-18 11:59:10.553179Z: [Thread 5324] (Msg 1/1) BIP2152I: Configuration message received. 
2020-03-18 11:59:11.498956Z: [Thread 5324] (Msg 1/1) BIP2155I: About to 'Stop' the deployed resource 'Kafka_Producer' of type 'Application'. 
2020-03-18 11:59:11.499286Z: [Thread 5324] (Msg 1/1) BIP2271I: Deployed resource 'Producer_Kafka' (uuid='Producer_Kafka',type='MessageFlow') successfully stopped. 
2020-03-18 11:59:11.499748Z: [Thread 5324] (Msg 1/1) BIP2155I: About to 'TearDown' the deployed resource 'Kafka_Producer' of type 'Application'. 
2020-03-18 11:59:11.547028Z: [Thread 5324] (Msg 1/1) BIP3133I: The HTTP Listener has stopped listening on port '7800' for 'http' connections. 
2020-03-18 11:59:11.567229Z: [Thread 5324] (Msg 1/1) BIP2155I: About to 'Initialize' the deployed resource 'Kafka_Producer' of type 'Application'. 
2020-03-18 11:59:11.620523Z: [Thread 5324] (Msg 1/1) BIP2155I: About to 'Start' the deployed resource 'Kafka_Producer' of type 'Application'. 
2020-03-18 11:59:11.620709Z: [Thread 5324] (Msg 1/1) BIP2269I: Deployed resource 'Producer_Kafka' (uuid='Producer_Kafka',type='MessageFlow') started successfully. 
2020-03-18 11:59:11.645676Z: [Thread 5324] (Msg 1/1) BIP3132I: The HTTP Listener has started listening on port '7800' for 'http' connections. 
2020-03-18 11:59:11.645736Z: [Thread 5324] (Msg 1/1) BIP1996I: Listening on HTTP URL '/kafkademo'. 
2020-03-18 11:59:11.645914Z: [Thread 5324] (Msg 1/1) BIP9332I: Application 'Kafka_Producer' has been changed successfully. 
2020-03-18 11:59:11.645961Z: [Thread 5324] (Msg 1/1) BIP9326I: The source 'Kafka_Producerproject.generated.bar' has been successfully deployed. 
2020-03-18 11:59:11.647323Z: [Thread 5324] (Msg 1/1) BIP2154I: Integration server finished with Configuration message. 
2020-03-18 12:00:31.049870Z: [Thread 17300] (Msg 1/1) BIP2152I: Configuration message received. 
2020-03-18 12:00:34.460048Z: [Thread 17300] (Msg 1/1) BIP2155I: About to 'Stop' the deployed resource 'Kafka_Producer' of type 'Application'. 
2020-03-18 12:00:34.460384Z: [Thread 17300] (Msg 1/1) BIP2271I: Deployed resource 'Producer_Kafka' (uuid='Producer_Kafka',type='MessageFlow') successfully stopped. 
2020-03-18 12:00:34.461008Z: [Thread 17300] (Msg 1/1) BIP2155I: About to 'TearDown' the deployed resource 'Kafka_Producer' of type 'Application'. 
2020-03-18 12:00:34.517912Z: [Thread 17300] (Msg 1/1) BIP3133I: The HTTP Listener has stopped listening on port '7800' for 'http' connections. 
2020-03-18 12:00:34.538364Z: [Thread 17300] (Msg 1/1) BIP2155I: About to 'Initialize' the deployed resource 'Kafka_Producer' of type 'Application'. 
2020-03-18 12:00:34.587240Z: [Thread 17300] (Msg 1/1) BIP2155I: About to 'Start' the deployed resource 'Kafka_Producer' of type 'Application'. 
2020-03-18 12:00:34.587392Z: [Thread 17300] (Msg 1/1) BIP2269I: Deployed resource 'Producer_Kafka' (uuid='Producer_Kafka',type='MessageFlow') started successfully. 
2020-03-18 12:00:34.612424Z: [Thread 17300] (Msg 1/1) BIP3132I: The HTTP Listener has started listening on port '7800' for 'http' connections. 
2020-03-18 12:00:34.612524Z: [Thread 17300] (Msg 1/1) BIP1996I: Listening on HTTP URL '/kafkademo'. 
2020-03-18 12:00:34.612792Z: [Thread 17300] (Msg 1/1) BIP9332I: Application 'Kafka_Producer' has been changed successfully. 
2020-03-18 12:00:34.612856Z: [Thread 17300] (Msg 1/1) BIP9326I: The source 'Kafka_Producerproject.generated.bar' has been successfully deployed. 
2020-03-18 12:00:34.613376Z: [Thread 17300] (Msg 1/1) BIP2154I: Integration server finished with Configuration message. 
